main.c:69:5:main	24	static
main.c:147:6:HAL_UART_RxCpltCallback	16	static
main.c:153:6:SystemClock_Config	72	static
main.c:191:13:MX_USART1_UART_Init	8	static
main.c:224:13:MX_USART2_UART_Init	8	static
main.c:257:13:MX_GPIO_Init	40	static
main.c:297:6:Error_Handler	4	static,ignoring_inline_asm
