<!--This work is licensed under a Creative Commons Attribution-ShareAlike 4.0 International License (CC BY-SA) with Design Exception 1.0-->
<eagle version="7.1.0">
<drawing>
<settings>
<setting alwaysvectorfont="no"/>
<setting verticaltext="up"/>
</settings>
<grid distance="0.1" unitdist="inch" unit="inch" style="lines" multiple="1" display="no" altdistance="0.01" altunitdist="inch" altunit="inch"/>
<layers>
<layer number="1" name="Top" color="4" fill="1" visible="yes" active="yes"/>
<layer number="16" name="Bottom" color="1" fill="1" visible="yes" active="yes"/>
<layer number="17" name="Pads" color="2" fill="1" visible="yes" active="yes"/>
<layer number="18" name="Vias" color="2" fill="1" visible="yes" active="yes"/>
<layer number="19" name="Unrouted" color="6" fill="1" visible="yes" active="yes"/>
<layer number="20" name="Dimension" color="15" fill="1" visible="yes" active="yes"/>
<layer number="21" name="tPlace" color="7" fill="1" visible="yes" active="yes"/>
<layer number="22" name="bPlace" color="7" fill="1" visible="yes" active="yes"/>
<layer number="23" name="tOrigins" color="15" fill="1" visible="yes" active="yes"/>
<layer number="24" name="bOrigins" color="15" fill="1" visible="yes" active="yes"/>
<layer number="25" name="tNames" color="7" fill="1" visible="yes" active="yes"/>
<layer number="26" name="bNames" color="7" fill="1" visible="yes" active="yes"/>
<layer number="27" name="tValues" color="7" fill="1" visible="yes" active="yes"/>
<layer number="28" name="bValues" color="7" fill="1" visible="yes" active="yes"/>
<layer number="29" name="tStop" color="7" fill="3" visible="yes" active="yes"/>
<layer number="30" name="bStop" color="7" fill="6" visible="no" active="yes"/>
<layer number="31" name="tCream" color="7" fill="4" visible="yes" active="yes"/>
<layer number="32" name="bCream" color="7" fill="5" visible="no" active="yes"/>
<layer number="33" name="tFinish" color="6" fill="3" visible="no" active="yes"/>
<layer number="34" name="bFinish" color="6" fill="6" visible="no" active="yes"/>
<layer number="35" name="tGlue" color="7" fill="4" visible="no" active="yes"/>
<layer number="36" name="bGlue" color="7" fill="5" visible="no" active="yes"/>
<layer number="37" name="tTest" color="7" fill="1" visible="no" active="yes"/>
<layer number="38" name="bTest" color="7" fill="1" visible="no" active="yes"/>
<layer number="39" name="tKeepout" color="4" fill="11" visible="yes" active="yes"/>
<layer number="40" name="bKeepout" color="1" fill="11" visible="yes" active="yes"/>
<layer number="41" name="tRestrict" color="4" fill="10" visible="yes" active="yes"/>
<layer number="42" name="bRestrict" color="1" fill="10" visible="yes" active="yes"/>
<layer number="43" name="vRestrict" color="2" fill="10" visible="yes" active="yes"/>
<layer number="44" name="Drills" color="7" fill="1" visible="no" active="yes"/>
<layer number="45" name="Holes" color="7" fill="1" visible="no" active="yes"/>
<layer number="46" name="Milling" color="3" fill="1" visible="no" active="yes"/>
<layer number="47" name="Measures" color="7" fill="1" visible="no" active="yes"/>
<layer number="48" name="Document" color="7" fill="1" visible="yes" active="yes"/>
<layer number="49" name="Reference" color="7" fill="1" visible="yes" active="yes"/>
<layer number="51" name="tDocu" color="7" fill="1" visible="yes" active="yes"/>
<layer number="52" name="bDocu" color="7" fill="1" visible="yes" active="yes"/>
<layer number="90" name="Modules" color="5" fill="1" visible="yes" active="yes"/>
<layer number="91" name="Nets" color="2" fill="1" visible="yes" active="yes"/>
<layer number="92" name="Busses" color="1" fill="1" visible="yes" active="yes"/>
<layer number="93" name="Pins" color="2" fill="1" visible="yes" active="yes"/>
<layer number="94" name="Symbols" color="4" fill="1" visible="yes" active="yes"/>
<layer number="95" name="Names" color="7" fill="1" visible="yes" active="yes"/>
<layer number="96" name="Values" color="7" fill="1" visible="yes" active="yes"/>
<layer number="97" name="Info" color="7" fill="1" visible="yes" active="yes"/>
<layer number="98" name="Guide" color="6" fill="1" visible="yes" active="yes"/>
</layers>
<library>
<packages>
<package name="CONV_LMZ23605TZE/NOPB">
<wire x1="-5.08" y1="6.885" x2="5.08" y2="6.885" width="0.127" layer="51"/>
<wire x1="5.08" y1="6.885" x2="5.08" y2="-2.965" width="0.127" layer="51"/>
<wire x1="5.08" y1="-2.965" x2="-5.08" y2="-2.965" width="0.127" layer="51"/>
<wire x1="-5.08" y1="-2.965" x2="-5.08" y2="6.885" width="0.127" layer="51"/>
<rectangle x1="-2.075" y1="1.6675" x2="-0.595" y2="2.8975" layer="31"/>
<rectangle x1="0.595" y1="1.6675" x2="2.075" y2="2.8975" layer="31"/>
<rectangle x1="-2.075" y1="3.3775" x2="-0.595" y2="4.6075" layer="31"/>
<rectangle x1="-2.075" y1="5.0875" x2="-0.595" y2="6.3175" layer="31"/>
<rectangle x1="0.595" y1="3.3775" x2="2.075" y2="4.6075" layer="31"/>
<rectangle x1="0.595" y1="5.0875" x2="2.075" y2="6.3175" layer="31"/>
<rectangle x1="0.595" y1="-0.0425" x2="2.075" y2="1.1875" layer="31"/>
<rectangle x1="0.595" y1="-1.7525" x2="2.075" y2="-0.5225" layer="31"/>
<rectangle x1="-2.075" y1="-0.0425" x2="-0.595" y2="1.1875" layer="31"/>
<rectangle x1="-2.075" y1="-1.7525" x2="-0.595" y2="-0.5225" layer="31"/>
<wire x1="-5.08" y1="6.885" x2="5.08" y2="6.885" width="0.127" layer="21"/>
<wire x1="5.08" y1="6.885" x2="5.08" y2="-2.965" width="0.127" layer="21"/>
<wire x1="5.08" y1="-2.965" x2="-5.08" y2="-2.965" width="0.127" layer="21"/>
<wire x1="-5.08" y1="-2.965" x2="-5.08" y2="6.885" width="0.127" layer="21"/>
<wire x1="-5.33" y1="7.135" x2="5.33" y2="7.135" width="0.05" layer="39"/>
<wire x1="5.33" y1="7.135" x2="5.33" y2="-6.8025" width="0.05" layer="39"/>
<wire x1="5.33" y1="-6.8025" x2="-5.33" y2="-6.8025" width="0.05" layer="39"/>
<wire x1="-5.33" y1="-6.8025" x2="-5.33" y2="7.135" width="0.05" layer="39"/>
<text x="-5.5" y="7.5" size="1.27" layer="25">&gt;NAME</text>
<text x="-5.5" y="-7.5" size="1.27" layer="27" align="top-left">&gt;VALUE</text>
<circle x="-5.2" y="-5.2" radius="0.1" width="0.2" layer="51"/>
<circle x="-5.2" y="-5.2" radius="0.1" width="0.2" layer="21"/>
<smd name="8" x="0" y="2.2825" dx="5.35" dy="8.54" layer="1" cream="no"/>
<smd name="1" x="-3.81" y="-5.0225" dx="0.89" dy="3.06" layer="1"/>
<smd name="2" x="-2.54" y="-5.0225" dx="0.89" dy="3.06" layer="1"/>
<smd name="3" x="-1.27" y="-5.0225" dx="0.89" dy="3.06" layer="1"/>
<smd name="4" x="0" y="-5.0225" dx="0.89" dy="3.06" layer="1"/>
<smd name="5" x="1.27" y="-5.0225" dx="0.89" dy="3.06" layer="1"/>
<smd name="6" x="2.54" y="-5.0225" dx="0.89" dy="3.06" layer="1"/>
<smd name="7" x="3.81" y="-5.0225" dx="0.89" dy="3.06" layer="1"/>
</package>
</packages>
<symbols>
<symbol name="LMZ23605TZE/NOPB">
<wire x1="12.7" y1="15.24" x2="12.7" y2="-15.24" width="0.254" layer="94"/>
<wire x1="12.7" y1="-15.24" x2="-12.7" y2="-15.24" width="0.254" layer="94"/>
<wire x1="-12.7" y1="-15.24" x2="-12.7" y2="15.24" width="0.254" layer="94"/>
<wire x1="-12.7" y1="15.24" x2="12.7" y2="15.24" width="0.254" layer="94"/>
<text x="-12.7" y="16.002" size="1.778" layer="95">&gt;NAME</text>
<text x="-12.7" y="-16.002" size="1.778" layer="96" align="top-left">&gt;VALUE</text>
<pin name="AGND" x="17.78" y="-10.16" length="middle" direction="pwr" rot="R180"/>
<pin name="PGND" x="17.78" y="-12.7" length="middle" direction="pwr" rot="R180"/>
<pin name="EN" x="-17.78" y="5.08" length="middle" direction="in"/>
<pin name="VIN" x="-17.78" y="12.7" length="middle" direction="in"/>
<pin name="VOUT" x="17.78" y="12.7" length="middle" direction="out" rot="R180"/>
<pin name="SYNC" x="-17.78" y="-5.08" length="middle" direction="in"/>
<pin name="SS/TRK" x="-17.78" y="0" length="middle" direction="in"/>
<pin name="FB" x="17.78" y="5.08" length="middle" direction="out" rot="R180"/>
</symbol>
</symbols>
<devicesets>
<deviceset name="LMZ23605TZE/NOPB" prefix="PS">
<description> &lt;a href="https://pricing.snapeda.com/parts/LMZ23605TZE/NOPB/Texas%20Instruments/view-part?ref=eda"&gt;Check prices&lt;/a&gt;</description>
<gates>
<gate name="G$1" symbol="LMZ23605TZE/NOPB" x="0" y="0"/>
</gates>
<devices>
<device name="" package="CONV_LMZ23605TZE/NOPB">
<connects>
<connect gate="G$1" pin="AGND" pad="4"/>
<connect gate="G$1" pin="EN" pad="3"/>
<connect gate="G$1" pin="FB" pad="5"/>
<connect gate="G$1" pin="PGND" pad="8"/>
<connect gate="G$1" pin="SS/TRK" pad="6"/>
<connect gate="G$1" pin="SYNC" pad="2"/>
<connect gate="G$1" pin="VIN" pad="1"/>
<connect gate="G$1" pin="VOUT" pad="7"/>
</connects>
<technologies>
<technology name="">
<attribute name="MP" value="LMZ23605TZE/NOPB"/>
<attribute name="Price" value="None"/>
<attribute name="Package" value="TO-PMOD-7 Texas Instruments"/>
<attribute name="Availability" value="Warning"/>
<attribute name="MF" value="Texas Instruments"/>
<attribute name="Purchase-URL" value="https://pricing.snapeda.com/search/part/LMZ23605TZE/NOPB/?ref=eda"/>
<attribute name="Description" value="
 5A SIMPLE SWITCHER&amp;reg; Power Module with 36V Maximum Input Voltage 7-TO-PMOD -40 to 85
"/>
</technology>
</technologies>
</device>
</devices>
</deviceset>
</devicesets>
</library>
</drawing>
</eagle>
