<!--This work is licensed under a Creative Commons Attribution-ShareAlike 4.0 International License (CC BY-SA) with Design Exception 1.0-->
<eagle version="7.1.0">
<drawing>
<settings>
<setting alwaysvectorfont="no"/>
<setting verticaltext="up"/>
</settings>
<grid distance="0.1" unitdist="inch" unit="inch" style="lines" multiple="1" display="no" altdistance="0.01" altunitdist="inch" altunit="inch"/>
<layers>
<layer number="1" name="Top" color="4" fill="1" visible="yes" active="yes"/>
<layer number="16" name="Bottom" color="1" fill="1" visible="yes" active="yes"/>
<layer number="17" name="Pads" color="2" fill="1" visible="yes" active="yes"/>
<layer number="18" name="Vias" color="2" fill="1" visible="yes" active="yes"/>
<layer number="19" name="Unrouted" color="6" fill="1" visible="yes" active="yes"/>
<layer number="20" name="Dimension" color="15" fill="1" visible="yes" active="yes"/>
<layer number="21" name="tPlace" color="7" fill="1" visible="yes" active="yes"/>
<layer number="22" name="bPlace" color="7" fill="1" visible="yes" active="yes"/>
<layer number="23" name="tOrigins" color="15" fill="1" visible="yes" active="yes"/>
<layer number="24" name="bOrigins" color="15" fill="1" visible="yes" active="yes"/>
<layer number="25" name="tNames" color="7" fill="1" visible="yes" active="yes"/>
<layer number="26" name="bNames" color="7" fill="1" visible="yes" active="yes"/>
<layer number="27" name="tValues" color="7" fill="1" visible="yes" active="yes"/>
<layer number="28" name="bValues" color="7" fill="1" visible="yes" active="yes"/>
<layer number="29" name="tStop" color="7" fill="3" visible="yes" active="yes"/>
<layer number="30" name="bStop" color="7" fill="6" visible="no" active="yes"/>
<layer number="31" name="tCream" color="7" fill="4" visible="yes" active="yes"/>
<layer number="32" name="bCream" color="7" fill="5" visible="no" active="yes"/>
<layer number="33" name="tFinish" color="6" fill="3" visible="no" active="yes"/>
<layer number="34" name="bFinish" color="6" fill="6" visible="no" active="yes"/>
<layer number="35" name="tGlue" color="7" fill="4" visible="no" active="yes"/>
<layer number="36" name="bGlue" color="7" fill="5" visible="no" active="yes"/>
<layer number="37" name="tTest" color="7" fill="1" visible="no" active="yes"/>
<layer number="38" name="bTest" color="7" fill="1" visible="no" active="yes"/>
<layer number="39" name="tKeepout" color="4" fill="11" visible="yes" active="yes"/>
<layer number="40" name="bKeepout" color="1" fill="11" visible="yes" active="yes"/>
<layer number="41" name="tRestrict" color="4" fill="10" visible="yes" active="yes"/>
<layer number="42" name="bRestrict" color="1" fill="10" visible="yes" active="yes"/>
<layer number="43" name="vRestrict" color="2" fill="10" visible="yes" active="yes"/>
<layer number="44" name="Drills" color="7" fill="1" visible="no" active="yes"/>
<layer number="45" name="Holes" color="7" fill="1" visible="no" active="yes"/>
<layer number="46" name="Milling" color="3" fill="1" visible="no" active="yes"/>
<layer number="47" name="Measures" color="7" fill="1" visible="no" active="yes"/>
<layer number="48" name="Document" color="7" fill="1" visible="yes" active="yes"/>
<layer number="49" name="Reference" color="7" fill="1" visible="yes" active="yes"/>
<layer number="51" name="tDocu" color="7" fill="1" visible="yes" active="yes"/>
<layer number="52" name="bDocu" color="7" fill="1" visible="yes" active="yes"/>
<layer number="90" name="Modules" color="5" fill="1" visible="yes" active="yes"/>
<layer number="91" name="Nets" color="2" fill="1" visible="yes" active="yes"/>
<layer number="92" name="Busses" color="1" fill="1" visible="yes" active="yes"/>
<layer number="93" name="Pins" color="2" fill="1" visible="yes" active="yes"/>
<layer number="94" name="Symbols" color="4" fill="1" visible="yes" active="yes"/>
<layer number="95" name="Names" color="7" fill="1" visible="yes" active="yes"/>
<layer number="96" name="Values" color="7" fill="1" visible="yes" active="yes"/>
<layer number="97" name="Info" color="7" fill="1" visible="yes" active="yes"/>
<layer number="98" name="Guide" color="6" fill="1" visible="yes" active="yes"/>
</layers>
<library>
<packages>
<package name="DDPAK-5_Q">
<wire x1="-2.921" y1="-5.2832" x2="-3.8862" y2="-5.2832" width="0.1524" layer="51"/>
<wire x1="-3.8862" y1="-5.2832" x2="-3.8862" y2="-9.6012" width="0.1524" layer="51"/>
<wire x1="-3.8862" y1="-9.6012" x2="-2.921" y2="-9.6012" width="0.1524" layer="51"/>
<wire x1="-2.921" y1="-9.6012" x2="-2.921" y2="-5.2832" width="0.1524" layer="51"/>
<wire x1="-1.2192" y1="-5.2832" x2="-2.1844" y2="-5.2832" width="0.1524" layer="51"/>
<wire x1="-2.1844" y1="-5.2832" x2="-2.1844" y2="-9.6012" width="0.1524" layer="51"/>
<wire x1="-2.1844" y1="-9.6012" x2="-1.2192" y2="-9.6012" width="0.1524" layer="51"/>
<wire x1="-1.2192" y1="-9.6012" x2="-1.2192" y2="-5.2832" width="0.1524" layer="51"/>
<wire x1="0.4826" y1="-5.2832" x2="-0.4826" y2="-5.2832" width="0.1524" layer="51"/>
<wire x1="-0.4826" y1="-5.2832" x2="-0.4826" y2="-9.6012" width="0.1524" layer="51"/>
<wire x1="-0.4826" y1="-9.6012" x2="0.4826" y2="-9.6012" width="0.1524" layer="51"/>
<wire x1="0.4826" y1="-9.6012" x2="0.4826" y2="-5.2832" width="0.1524" layer="51"/>
<wire x1="2.1844" y1="-5.2832" x2="1.2192" y2="-5.2832" width="0.1524" layer="51"/>
<wire x1="1.2192" y1="-5.2832" x2="1.2192" y2="-9.6012" width="0.1524" layer="51"/>
<wire x1="1.2192" y1="-9.6012" x2="2.1844" y2="-9.6012" width="0.1524" layer="51"/>
<wire x1="2.1844" y1="-9.6012" x2="2.1844" y2="-5.2832" width="0.1524" layer="51"/>
<wire x1="3.8862" y1="-5.2832" x2="2.921" y2="-5.2832" width="0.1524" layer="51"/>
<wire x1="2.921" y1="-5.2832" x2="2.921" y2="-9.6012" width="0.1524" layer="51"/>
<wire x1="2.921" y1="-9.6012" x2="3.8862" y2="-9.6012" width="0.1524" layer="51"/>
<wire x1="3.8862" y1="-9.6012" x2="3.8862" y2="-5.2832" width="0.1524" layer="51"/>
<wire x1="-4.699" y1="-5.2832" x2="4.699" y2="-5.2832" width="0.1524" layer="51"/>
<wire x1="4.699" y1="-5.2832" x2="4.699" y2="5.2832" width="0.1524" layer="51"/>
<wire x1="4.699" y1="5.2832" x2="-4.699" y2="5.2832" width="0.1524" layer="51"/>
<wire x1="-4.699" y1="5.2832" x2="-4.699" y2="-5.2832" width="0.1524" layer="51"/>
<text x="-3.9116" y="0.7" size="0.4" layer="25">&gt;NAME</text>
<text x="-3.9116" y="-10.6441" size="0.4" layer="27" align="top-left">&gt;VALUE</text>
<smd name="1" x="-3.4036" y="-8.8011" dx="1.016" dy="2.286" layer="1"/>
<smd name="2" x="-1.7018" y="-8.8011" dx="1.016" dy="2.286" layer="1"/>
<smd name="3" x="0" y="-8.8011" dx="1.016" dy="2.286" layer="1"/>
<smd name="4" x="1.7018" y="-8.8011" dx="1.016" dy="2.286" layer="1"/>
<smd name="5" x="3.4036" y="-8.8011" dx="1.016" dy="2.286" layer="1"/>
<smd name="6" x="0" y="0" dx="9.4488" dy="11.2522" layer="1"/>
</package>
</packages>
<symbols>
<symbol name="LT1170CQPBF">
<wire x1="7.62" y1="5.08" x2="7.62" y2="-10.16" width="0.1524" layer="94"/>
<wire x1="7.62" y1="-10.16" x2="48.26" y2="-10.16" width="0.1524" layer="94"/>
<wire x1="48.26" y1="-10.16" x2="48.26" y2="5.08" width="0.1524" layer="94"/>
<wire x1="48.26" y1="5.08" x2="7.62" y2="5.08" width="0.1524" layer="94"/>
<text x="23.2375" y="9.12722" size="2.08477" layer="95" ratio="6" rot="SR0">&gt;NAME</text>
<text x="22.6065" y="6.58615" size="2.08519" layer="96" ratio="6" rot="SR0">&gt;VALUE</text>
<pin name="VC" x="0" y="0" direction="pas"/>
<pin name="FB" x="0" y="-2.54" direction="pas"/>
<pin name="GND" x="0" y="-5.08" direction="pwr"/>
<pin name="VSW" x="55.88" y="-5.08" direction="pas" rot="R180"/>
<pin name="VIN" x="55.88" y="-2.54" direction="in" rot="R180"/>
<pin name="EPAD" x="55.88" y="0" direction="pas" rot="R180"/>
</symbol>
</symbols>
<devicesets>
<deviceset name="LT1170CQPBF" prefix="U">
<description> &lt;a href="https://pricing.snapeda.com/parts/LT1170CQ%23PBF/Analog%20Devices/view-part?ref=eda"&gt;Check prices&lt;/a&gt;</description>
<gates>
<gate name="A" symbol="LT1170CQPBF" x="0" y="0"/>
</gates>
<devices>
<device name="" package="DDPAK-5_Q">
<connects>
<connect gate="A" pin="EPAD" pad="6"/>
<connect gate="A" pin="FB" pad="2"/>
<connect gate="A" pin="GND" pad="3"/>
<connect gate="A" pin="VC" pad="1"/>
<connect gate="A" pin="VIN" pad="5"/>
<connect gate="A" pin="VSW" pad="4"/>
</connects>
<technologies>
<technology name="">
<attribute name="MP" value="LT1170CQ#PBF"/>
<attribute name="Availability" value="Good"/>
<attribute name="MF" value="Analog Devices"/>
<attribute name="Description" value="
Buck, Boost, Cuk, Flyback, Forward Converter Switching Regulator IC Positive or Negative Adjustable 1.244V 1 Output 5A (Switch) TO-263-6, D²Pak (5 Leads + Tab), TO-263BA
"/>
<attribute name="Package" value="DD PAK-5 Analog Devices"/>
<attribute name="Purchase-URL" value="https://pricing.snapeda.com/search/part/LT1170CQ#PBF/?ref=eda"/>
<attribute name="Price" value="None"/>
</technology>
</technologies>
</device>
</devices>
</deviceset>
</devicesets>
</library>
</drawing>
</eagle>
