<!--This work is licensed under a Creative Commons Attribution-ShareAlike 4.0 International License (CC BY-SA) with Design Exception 1.0-->
<eagle version="7.1.0">
<drawing>
<settings>
<setting alwaysvectorfont="no"/>
<setting verticaltext="up"/>
</settings>
<grid distance="0.1" unitdist="inch" unit="inch" style="lines" multiple="1" display="no" altdistance="0.01" altunitdist="inch" altunit="inch"/>
<layers>
<layer number="1" name="Top" color="4" fill="1" visible="yes" active="yes"/>
<layer number="16" name="Bottom" color="1" fill="1" visible="yes" active="yes"/>
<layer number="17" name="Pads" color="2" fill="1" visible="yes" active="yes"/>
<layer number="18" name="Vias" color="2" fill="1" visible="yes" active="yes"/>
<layer number="19" name="Unrouted" color="6" fill="1" visible="yes" active="yes"/>
<layer number="20" name="Dimension" color="15" fill="1" visible="yes" active="yes"/>
<layer number="21" name="tPlace" color="7" fill="1" visible="yes" active="yes"/>
<layer number="22" name="bPlace" color="7" fill="1" visible="yes" active="yes"/>
<layer number="23" name="tOrigins" color="15" fill="1" visible="yes" active="yes"/>
<layer number="24" name="bOrigins" color="15" fill="1" visible="yes" active="yes"/>
<layer number="25" name="tNames" color="7" fill="1" visible="yes" active="yes"/>
<layer number="26" name="bNames" color="7" fill="1" visible="yes" active="yes"/>
<layer number="27" name="tValues" color="7" fill="1" visible="yes" active="yes"/>
<layer number="28" name="bValues" color="7" fill="1" visible="yes" active="yes"/>
<layer number="29" name="tStop" color="7" fill="3" visible="yes" active="yes"/>
<layer number="30" name="bStop" color="7" fill="6" visible="no" active="yes"/>
<layer number="31" name="tCream" color="7" fill="4" visible="yes" active="yes"/>
<layer number="32" name="bCream" color="7" fill="5" visible="no" active="yes"/>
<layer number="33" name="tFinish" color="6" fill="3" visible="no" active="yes"/>
<layer number="34" name="bFinish" color="6" fill="6" visible="no" active="yes"/>
<layer number="35" name="tGlue" color="7" fill="4" visible="no" active="yes"/>
<layer number="36" name="bGlue" color="7" fill="5" visible="no" active="yes"/>
<layer number="37" name="tTest" color="7" fill="1" visible="no" active="yes"/>
<layer number="38" name="bTest" color="7" fill="1" visible="no" active="yes"/>
<layer number="39" name="tKeepout" color="4" fill="11" visible="yes" active="yes"/>
<layer number="40" name="bKeepout" color="1" fill="11" visible="yes" active="yes"/>
<layer number="41" name="tRestrict" color="4" fill="10" visible="yes" active="yes"/>
<layer number="42" name="bRestrict" color="1" fill="10" visible="yes" active="yes"/>
<layer number="43" name="vRestrict" color="2" fill="10" visible="yes" active="yes"/>
<layer number="44" name="Drills" color="7" fill="1" visible="no" active="yes"/>
<layer number="45" name="Holes" color="7" fill="1" visible="no" active="yes"/>
<layer number="46" name="Milling" color="3" fill="1" visible="no" active="yes"/>
<layer number="47" name="Measures" color="7" fill="1" visible="no" active="yes"/>
<layer number="48" name="Document" color="7" fill="1" visible="yes" active="yes"/>
<layer number="49" name="Reference" color="7" fill="1" visible="yes" active="yes"/>
<layer number="51" name="tDocu" color="7" fill="1" visible="yes" active="yes"/>
<layer number="52" name="bDocu" color="7" fill="1" visible="yes" active="yes"/>
<layer number="90" name="Modules" color="5" fill="1" visible="yes" active="yes"/>
<layer number="91" name="Nets" color="2" fill="1" visible="yes" active="yes"/>
<layer number="92" name="Busses" color="1" fill="1" visible="yes" active="yes"/>
<layer number="93" name="Pins" color="2" fill="1" visible="yes" active="yes"/>
<layer number="94" name="Symbols" color="4" fill="1" visible="yes" active="yes"/>
<layer number="95" name="Names" color="7" fill="1" visible="yes" active="yes"/>
<layer number="96" name="Values" color="7" fill="1" visible="yes" active="yes"/>
<layer number="97" name="Info" color="7" fill="1" visible="yes" active="yes"/>
<layer number="98" name="Guide" color="6" fill="1" visible="yes" active="yes"/>
</layers>
<library>
<packages>
<package name="SOT95P280X145-5N">
<circle x="-2.41" y="1.05" radius="0.1" width="0.2" layer="21"/>
<circle x="-2.41" y="1.05" radius="0.1" width="0.2" layer="51"/>
<text x="-2.6" y="2" size="1.016" layer="25">&gt;NAME</text>
<text x="-2.6" y="-2" size="1.016" layer="27" align="top-left">&gt;VALUE</text>
<wire x1="-0.33" y1="1.45" x2="0.33" y2="1.45" width="0.127" layer="21"/>
<wire x1="0.8" y1="0.335" x2="0.8" y2="-0.335" width="0.127" layer="21"/>
<wire x1="0.33" y1="-1.45" x2="-0.33" y2="-1.45" width="0.127" layer="21"/>
<wire x1="-0.8" y1="-1.45" x2="-0.8" y2="1.45" width="0.127" layer="51"/>
<wire x1="0.8" y1="1.45" x2="0.8" y2="-1.45" width="0.127" layer="51"/>
<wire x1="-0.8" y1="1.45" x2="0.8" y2="1.45" width="0.127" layer="51"/>
<wire x1="0.8" y1="-1.45" x2="-0.8" y2="-1.45" width="0.127" layer="51"/>
<wire x1="-2.11" y1="1.7" x2="2.11" y2="1.7" width="0.05" layer="39"/>
<wire x1="2.11" y1="1.7" x2="2.11" y2="-1.7" width="0.05" layer="39"/>
<wire x1="2.11" y1="-1.7" x2="-2.11" y2="-1.7" width="0.05" layer="39"/>
<wire x1="-2.11" y1="-1.7" x2="-2.11" y2="1.7" width="0.05" layer="39"/>
<smd name="1" x="-1.255" y="0.95" dx="1.21" dy="0.59" layer="1" roundness="50"/>
<smd name="2" x="-1.255" y="0" dx="1.21" dy="0.59" layer="1" roundness="50"/>
<smd name="3" x="-1.255" y="-0.95" dx="1.21" dy="0.59" layer="1" roundness="50"/>
<smd name="4" x="1.255" y="-0.95" dx="1.21" dy="0.59" layer="1" roundness="50"/>
<smd name="5" x="1.255" y="0.95" dx="1.21" dy="0.59" layer="1" roundness="50"/>
</package>
</packages>
<symbols>
<symbol name="MIC5504-3.3YM5-TR">
<wire x1="-12.7" y1="10.16" x2="12.7" y2="10.16" width="0.41" layer="94"/>
<wire x1="12.7" y1="10.16" x2="12.7" y2="-10.16" width="0.41" layer="94"/>
<wire x1="12.7" y1="-10.16" x2="-12.7" y2="-10.16" width="0.41" layer="94"/>
<wire x1="-12.7" y1="-10.16" x2="-12.7" y2="10.16" width="0.41" layer="94"/>
<text x="-12.7" y="11.16" size="2.0828" layer="95" ratio="10" rot="SR0">&gt;NAME</text>
<text x="-12.7" y="-14.16" size="2.0828" layer="96" ratio="10" rot="SR0">&gt;VALUE</text>
<pin name="VIN" x="-17.78" y="7.62" length="middle" direction="in"/>
<pin name="EN" x="-17.78" y="2.54" length="middle"/>
<pin name="NC" x="-17.78" y="-2.54" length="middle"/>
<pin name="VOUT" x="17.78" y="7.62" length="middle" direction="out" rot="R180"/>
<pin name="GND" x="17.78" y="-7.62" length="middle" direction="pwr" rot="R180"/>
</symbol>
</symbols>
<devicesets>
<deviceset name="MIC5504-3.3YM5-TR" prefix="U">
<description>None &lt;a href="https://pricing.snapeda.com/parts/MIC5504-3.3YM5-TR/Microchip/view-part?ref=eda"&gt;Check prices&lt;/a&gt;</description>
<gates>
<gate name="G$1" symbol="MIC5504-3.3YM5-TR" x="0" y="0"/>
</gates>
<devices>
<device name="" package="SOT95P280X145-5N">
<connects>
<connect gate="G$1" pin="EN" pad="3"/>
<connect gate="G$1" pin="GND" pad="2"/>
<connect gate="G$1" pin="NC" pad="4"/>
<connect gate="G$1" pin="VIN" pad="1"/>
<connect gate="G$1" pin="VOUT" pad="5"/>
</connects>
<technologies>
<technology name="">
<attribute name="Availability" value="Good"/>
<attribute name="Package" value="SOT-23 Microchip"/>
<attribute name="Price" value="None"/>
<attribute name="MP" value="MIC5504-3.3YM5-TR"/>
<attribute name="Description" value="
Linear Voltage Regulator IC 1 Output 300mA SOT-23-5
"/>
<attribute name="MF" value="Microchip"/>
<attribute name="Purchase-URL" value="https://pricing.snapeda.com/search/part/MIC5504-3.3YM5-TR/?ref=eda"/>
</technology>
</technologies>
</device>
</devices>
</deviceset>
</devicesets>
</library>
</drawing>
</eagle>
