EESchema Schematic File Version 4
LIBS:create4care1_STM32_motor-cache
EELAYER 26 0
EELAYER END
$Descr A4 11693 8268
encoding utf-8
Sheet 4 4
Title ""
Date ""
Rev ""
Comp ""
Comment1 ""
Comment2 ""
Comment3 ""
Comment4 ""
$EndDescr
Wire Notes Line
	-3475 7550 -2450 7550
Wire Notes Line
	-2450 7550 -2450 4450
Wire Notes Line
	-2450 4450 -3475 4450
Wire Notes Line
	-3475 4650 -2450 4650
Wire Notes Line
	-3475 4450 -3475 7550
Text Notes -3200 4600 0    50   ~ 0
hiarchies pinnen\n
Text GLabel -2925 4850 2    50   Input ~ 0
DAC1_OUT2
Text HLabel -3000 4850 0    50   Input ~ 0
DAC1_OUT2
Wire Wire Line
	-2925 4850 -3000 4850
$Comp
L Device:Q_NMOS_DGS Q1
U 1 1 5FB3F73E
P 3700 3050
F 0 "Q1" V 4042 3050 50  0000 C CNN
F 1 "Q_NMOS_DGS" V 3951 3050 50  0000 C CNN
F 2 "Package_TO_SOT_THT:TO-8-3" H 3900 3150 50  0001 C CNN
F 3 "~" H 3700 3050 50  0001 C CNN
	1    3700 3050
	0    -1   -1   0   
$EndComp
$Comp
L Device:CP1 C_out1
U 1 1 5FB42FAF
P 5050 3250
F 0 "C_out1" H 5165 3296 50  0000 L CNN
F 1 "82uF" H 5165 3205 50  0000 L CNN
F 2 "Capacitor_THT:CP_Axial_L11.0mm_D8.0mm_P15.00mm_Horizontal" H 5050 3250 50  0001 C CNN
F 3 "~" H 5050 3250 50  0001 C CNN
	1    5050 3250
	1    0    0    -1  
$EndComp
$Comp
L Device:D_Schottky D1
U 1 1 5FB466CB
P 4100 3250
F 0 "D1" V 4054 3329 50  0000 L CNN
F 1 "D_Schottky" V 4145 3329 50  0000 L CNN
F 2 "Diode_THT:D_5KPW_P12.70mm_Horizontal" H 4100 3250 50  0001 C CNN
F 3 "~" H 4100 3250 50  0001 C CNN
	1    4100 3250
	0    1    1    0   
$EndComp
$Comp
L pspice:INDUCTOR L1
U 1 1 5FB487B2
P 4500 2950
F 0 "L1" H 4500 3165 50  0000 C CNN
F 1 "100uH" H 4500 3074 50  0000 C CNN
F 2 "Inductor_THT:L_Axial_L5.0mm_D3.6mm_P10.00mm_Horizontal_Murata_BL01RN1A2A2" H 4500 2950 50  0001 C CNN
F 3 "~" H 4500 2950 50  0001 C CNN
	1    4500 2950
	1    0    0    -1  
$EndComp
$Comp
L Connector:Screw_Terminal_01x02 J2
U 1 1 5FB56911
P 5750 3250
F 0 "J2" H 5830 3242 50  0000 L CNN
F 1 "Screw_Terminal_01x02" H 5830 3151 50  0000 L CNN
F 2 "Connector_JST:JST_EH_B2B-EH-A_1x02_P2.50mm_Vertical" H 5750 3250 50  0001 C CNN
F 3 "~" H 5750 3250 50  0001 C CNN
	1    5750 3250
	1    0    0    -1  
$EndComp
Wire Wire Line
	4250 2950 4100 2950
Wire Wire Line
	4750 2950 5050 2950
Wire Wire Line
	5050 2950 5050 3100
Wire Wire Line
	5050 2950 5550 2950
Connection ~ 5050 2950
Wire Wire Line
	5550 3700 5050 3700
Wire Wire Line
	5050 3700 5050 3400
Wire Wire Line
	4100 3700 4100 3400
Connection ~ 5050 3700
Wire Wire Line
	3050 3700 3050 3400
Connection ~ 4100 3700
Wire Wire Line
	3050 3100 3050 2950
Wire Wire Line
	3050 2950 3500 2950
$Comp
L Connector:Screw_Terminal_01x02 J1
U 1 1 5FB596EB
P 2450 3350
F 0 "J1" H 2368 3025 50  0000 C CNN
F 1 "Screw_Terminal_01x02" H 2368 3116 50  0000 C CNN
F 2 "Connector_JST:JST_EH_B2B-EH-A_1x02_P2.50mm_Vertical" H 2450 3350 50  0001 C CNN
F 3 "~" H 2450 3350 50  0001 C CNN
	1    2450 3350
	-1   0    0    1   
$EndComp
Wire Wire Line
	2650 3250 2650 2950
Wire Wire Line
	2650 2950 2700 2950
Connection ~ 3050 2950
Wire Wire Line
	3050 3700 2650 3700
Wire Wire Line
	2650 3700 2650 3350
Wire Wire Line
	4100 3100 4100 2950
Connection ~ 4100 2950
Wire Wire Line
	4100 2950 3900 2950
Text GLabel 3700 3400 0    50   Input ~ 0
DAC1_OUT2
$Comp
L Device:R R1
U 1 1 5FB5DA7C
P 6100 2950
F 0 "R1" V 5893 2950 50  0000 C CNN
F 1 "2K" V 5984 2950 50  0000 C CNN
F 2 "Resistor_THT:R_Axial_DIN0207_L6.3mm_D2.5mm_P2.54mm_Vertical" V 6030 2950 50  0001 C CNN
F 3 "~" H 6100 2950 50  0001 C CNN
	1    6100 2950
	0    1    1    0   
$EndComp
$Comp
L Device:R R2
U 1 1 5FB5FAD4
P 6500 2950
F 0 "R2" V 6293 2950 50  0000 C CNN
F 1 "1K" V 6384 2950 50  0000 C CNN
F 2 "Resistor_THT:R_Axial_DIN0207_L6.3mm_D2.5mm_P2.54mm_Vertical" V 6430 2950 50  0001 C CNN
F 3 "~" H 6500 2950 50  0001 C CNN
	1    6500 2950
	0    1    1    0   
$EndComp
Wire Wire Line
	5550 2950 5950 2950
Connection ~ 5550 2950
Wire Wire Line
	6250 2950 6300 2950
Wire Wire Line
	6650 2950 6750 2950
Wire Wire Line
	6750 2950 6750 3700
Wire Wire Line
	6750 3700 5550 3700
Connection ~ 5550 3700
Text GLabel 6300 3100 2    50   Input ~ 0
ADC1_OUT1
Wire Wire Line
	6300 3150 6300 2950
Connection ~ 6300 2950
Wire Wire Line
	6300 2950 6350 2950
Wire Wire Line
	5550 3350 5550 3700
Wire Wire Line
	5550 2950 5550 3250
$Comp
L Device:CP1 C_in1
U 1 1 5FB69149
P 3050 3250
F 0 "C_in1" H 3165 3296 50  0000 L CNN
F 1 "10uF" H 3165 3205 50  0000 L CNN
F 2 "Capacitor_THT:CP_Axial_L11.0mm_D8.0mm_P15.00mm_Horizontal" H 3050 3250 50  0001 C CNN
F 3 "~" H 3050 3250 50  0001 C CNN
	1    3050 3250
	1    0    0    -1  
$EndComp
$Comp
L power:+12V #PWR0156
U 1 1 5FB6ADAB
P 2700 2950
F 0 "#PWR0156" H 2700 2800 50  0001 C CNN
F 1 "+12V" H 2715 3123 50  0000 C CNN
F 2 "" H 2700 2950 50  0001 C CNN
F 3 "" H 2700 2950 50  0001 C CNN
	1    2700 2950
	1    0    0    -1  
$EndComp
Connection ~ 2700 2950
Wire Wire Line
	2700 2950 3050 2950
$Comp
L power:GND #PWR0157
U 1 1 5FB6B967
P 4350 3700
F 0 "#PWR0157" H 4350 3450 50  0001 C CNN
F 1 "GND" H 4355 3527 50  0000 C CNN
F 2 "" H 4350 3700 50  0001 C CNN
F 3 "" H 4350 3700 50  0001 C CNN
	1    4350 3700
	1    0    0    -1  
$EndComp
Connection ~ 4350 3700
Wire Wire Line
	4350 3700 5050 3700
Connection ~ 3050 3700
Wire Wire Line
	4350 3700 4100 3700
Wire Wire Line
	3050 3700 4100 3700
$Comp
L Connector:Conn_01x01_Female J3
U 1 1 5FB6D2DD
P 3700 3450
F 0 "J3" V 3546 3498 50  0000 L CNN
F 1 "Conn_01x01_Female" V 3637 3498 50  0000 L CNN
F 2 "Connector_JST:JST_ACH_BM01B-ACHSS-A-GAN-ETF_1x01-1MP_P1.20mm_Vertical" H 3700 3450 50  0001 C CNN
F 3 "~" H 3700 3450 50  0001 C CNN
	1    3700 3450
	0    1    1    0   
$EndComp
$Comp
L Connector:Conn_01x01_Female J4
U 1 1 5FB6F1ED
P 6300 3350
F 0 "J4" V 6146 3398 50  0000 L CNN
F 1 "Conn_01x01_Female" V 6237 3398 50  0000 L CNN
F 2 "Connector_JST:JST_ACH_BM01B-ACHSS-A-GAN-ETF_1x01-1MP_P1.20mm_Vertical" H 6300 3350 50  0001 C CNN
F 3 "~" H 6300 3350 50  0001 C CNN
	1    6300 3350
	0    1    1    0   
$EndComp
$Comp
L power:PWR_FLAG #FLG0101
U 1 1 5FB7646C
P 7400 2300
F 0 "#FLG0101" H 7400 2375 50  0001 C CNN
F 1 "PWR_FLAG" H 7400 2473 50  0000 C CNN
F 2 "" H 7400 2300 50  0001 C CNN
F 3 "~" H 7400 2300 50  0001 C CNN
	1    7400 2300
	1    0    0    -1  
$EndComp
$Comp
L power:+12V #PWR0163
U 1 1 5FB76AD0
P 7400 2350
F 0 "#PWR0163" H 7400 2200 50  0001 C CNN
F 1 "+12V" H 7415 2523 50  0000 C CNN
F 2 "" H 7400 2350 50  0001 C CNN
F 3 "" H 7400 2350 50  0001 C CNN
	1    7400 2350
	-1   0    0    1   
$EndComp
Wire Wire Line
	7400 2350 7400 2300
$Comp
L power:PWR_FLAG #FLG0102
U 1 1 5FB799C3
P 7850 2300
F 0 "#FLG0102" H 7850 2375 50  0001 C CNN
F 1 "PWR_FLAG" H 7850 2473 50  0000 C CNN
F 2 "" H 7850 2300 50  0001 C CNN
F 3 "~" H 7850 2300 50  0001 C CNN
	1    7850 2300
	1    0    0    -1  
$EndComp
$Comp
L power:+VDC #PWR0164
U 1 1 5FB7B111
P 5650 3250
F 0 "#PWR0164" H 5650 3150 50  0001 C CNN
F 1 "+VDC" H 5650 3525 50  0000 C CNN
F 2 "" H 5650 3250 50  0001 C CNN
F 3 "" H 5650 3250 50  0001 C CNN
	1    5650 3250
	1    0    0    -1  
$EndComp
$Comp
L power:+VDC #PWR0165
U 1 1 5FB7C04C
P 7850 2500
F 0 "#PWR0165" H 7850 2400 50  0001 C CNN
F 1 "+VDC" H 7850 2775 50  0000 C CNN
F 2 "" H 7850 2500 50  0001 C CNN
F 3 "" H 7850 2500 50  0001 C CNN
	1    7850 2500
	-1   0    0    1   
$EndComp
Wire Wire Line
	7850 2300 7850 2500
$Comp
L power:PWR_FLAG #FLG0103
U 1 1 5FB7DB3D
P 8250 2300
F 0 "#FLG0103" H 8250 2375 50  0001 C CNN
F 1 "PWR_FLAG" H 8250 2473 50  0000 C CNN
F 2 "" H 8250 2300 50  0001 C CNN
F 3 "~" H 8250 2300 50  0001 C CNN
	1    8250 2300
	1    0    0    -1  
$EndComp
$Comp
L power:GND #PWR0166
U 1 1 5FB7E3D6
P 8250 2400
F 0 "#PWR0166" H 8250 2150 50  0001 C CNN
F 1 "GND" H 8255 2227 50  0000 C CNN
F 2 "" H 8250 2400 50  0001 C CNN
F 3 "" H 8250 2400 50  0001 C CNN
	1    8250 2400
	1    0    0    -1  
$EndComp
Wire Wire Line
	8250 2400 8250 2300
Text HLabel -3050 5150 0    50   Input ~ 0
ADC_OUT1
Text GLabel -2950 5150 2    50   Input ~ 0
ADC_OUT1
Wire Wire Line
	-3050 5150 -2950 5150
$EndSCHEMATC
