EESchema Schematic File Version 4
LIBS:create4care1_STM32_motor-cache
EELAYER 26 0
EELAYER END
$Descr A4 11693 8268
encoding utf-8
Sheet 1 4
Title ""
Date ""
Rev ""
Comp ""
Comment1 ""
Comment2 ""
Comment3 ""
Comment4 ""
$EndDescr
$Sheet
S 2725 2475 1550 2900
U 5F9AEB5C
F0 "stm32" 50
F1 "stm32.sch" 50
F2 "SPI1_SCK" O R 4275 4300 50 
F3 "SPI1_MISO" O R 4275 4500 50 
F4 "SPI1_MOSI" O R 4275 4600 50 
F5 "SPI1_NSS" O R 4275 4700 50 
F6 "STEP" O R 4275 4225 50 
F7 "DIR" O R 4275 4125 50 
F8 "DRVoff" O R 4275 4025 50 
F9 "Nsleep" O R 4275 3925 50 
F10 "DAC1_OUT2" O R 4275 2575 50 
$EndSheet
$Sheet
S 5825 2800 900  2000
U 5F9AEB6D
F0 "motorcontroller" 50
F1 "motorcontroller.sch" 50
F2 "SDO" I L 5825 4500 50 
F3 "SDI" I L 5825 4400 50 
F4 "SCLK" I L 5825 4300 50 
F5 "STEP" I L 5825 4225 50 
F6 "DIR" I L 5825 4125 50 
F7 "DRVOFF" I L 5825 4025 50 
F8 "nSleep" I L 5825 3925 50 
F9 "nSCS" I L 5825 4600 50 
$EndSheet
Wire Wire Line
	5825 3925 4275 3925
Wire Wire Line
	4275 4025 5825 4025
Wire Wire Line
	5825 4125 4275 4125
Wire Wire Line
	4275 4225 5825 4225
Wire Wire Line
	5825 4300 4275 4300
Wire Wire Line
	5825 4400 4350 4400
Wire Wire Line
	4350 4400 4350 4500
Wire Wire Line
	4350 4500 4275 4500
Wire Wire Line
	4275 4600 4400 4600
Wire Wire Line
	4400 4600 4400 4500
Wire Wire Line
	4400 4500 5825 4500
Wire Wire Line
	4275 4700 4450 4700
Wire Wire Line
	4450 4700 4450 4600
Wire Wire Line
	4450 4600 5825 4600
$Sheet
S 4600 1225 775  1425
U 604B7CA2
F0 "laserdriver" 50
F1 "laserdriver.sch" 50
F2 "DAC1_OUT2" I L 4600 2575 50 
$EndSheet
Wire Wire Line
	4600 2575 4275 2575
$EndSCHEMATC
