EESchema Schematic File Version 4
LIBS:create4care1_STM32_motor-cache
EELAYER 26 0
EELAYER END
$Descr A4 11693 8268
encoding utf-8
Sheet 3 4
Title ""
Date ""
Rev ""
Comp ""
Comment1 ""
Comment2 ""
Comment3 ""
Comment4 ""
$EndDescr
$Comp
L DRV8889:DRV8889AQPWPRQ1 U2
U 1 1 5FCB898A
P 4450 3325
F 0 "U2" H 5250 3712 60  0000 C CNN
F 1 "DRV8889AQPWPRQ1" H 5250 3606 60  0000 C CNN
F 2 "drv8889-q1:DRV8889AQPWPRQ1" H 5250 3565 60  0001 C CNN
F 3 "" H 4450 3325 60  0000 C CNN
	1    4450 3325
	1    0    0    -1  
$EndComp
$Comp
L Device:C_Small C8
U 1 1 5FCB8A16
P 3250 3100
F 0 "C8" H 3342 3146 50  0000 L CNN
F 1 "0.022uF" H 3342 3055 50  0000 L CNN
F 2 "Capacitor_SMD:C_0603_1608Metric" H 3250 3100 50  0001 C CNN
F 3 "~" H 3250 3100 50  0001 C CNN
	1    3250 3100
	1    0    0    -1  
$EndComp
$Comp
L Device:C_Small C9
U 1 1 5FCB8A48
P 3250 3600
F 0 "C9" H 3342 3646 50  0000 L CNN
F 1 "0.01uF" H 3342 3555 50  0000 L CNN
F 2 "Capacitor_SMD:C_0603_1608Metric" H 3250 3600 50  0001 C CNN
F 3 "~" H 3250 3600 50  0001 C CNN
	1    3250 3600
	1    0    0    -1  
$EndComp
Wire Wire Line
	4450 3325 4450 3000
Wire Wire Line
	4450 3000 3250 3000
Wire Wire Line
	3250 3200 4375 3200
Wire Wire Line
	4375 3200 4375 3425
Wire Wire Line
	4375 3425 4450 3425
$Comp
L Device:C_Small C10
U 1 1 5FCB8C7F
P 3875 3450
F 0 "C10" H 3967 3496 50  0000 L CNN
F 1 "0.22uF" H 3967 3405 50  0000 L CNN
F 2 "Capacitor_SMD:C_0603_1608Metric" H 3875 3450 50  0001 C CNN
F 3 "~" H 3875 3450 50  0001 C CNN
	1    3875 3450
	1    0    0    -1  
$EndComp
Wire Wire Line
	4450 3525 4325 3525
Wire Wire Line
	4325 3525 4325 3350
Wire Wire Line
	4325 3350 3875 3350
Wire Wire Line
	3875 3550 3875 3625
Wire Wire Line
	3875 3625 4450 3625
Wire Wire Line
	3875 3350 3250 3350
Wire Wire Line
	3250 3350 3250 3500
Connection ~ 3875 3350
Connection ~ 3250 3350
$Comp
L Connector:Conn_01x02_Male J9
U 1 1 5FCB8F0C
P 1650 3200
F 0 "J9" H 1756 3378 50  0000 C CNN
F 1 "Conn_01x02_Male" H 1756 3287 50  0000 C CNN
F 2 "Connector_JST:JST_EH_B02B-EH-A_1x02_P2.50mm_Vertical" H 1650 3200 50  0001 C CNN
F 3 "~" H 1650 3200 50  0001 C CNN
	1    1650 3200
	1    0    0    -1  
$EndComp
Wire Wire Line
	1850 3200 2325 3200
Wire Wire Line
	2325 3200 2325 3025
Wire Wire Line
	1850 3300 2500 3300
$Comp
L power:+5V #PWR0123
U 1 1 5FCB9761
P 2325 3025
F 0 "#PWR0123" H 2325 2875 50  0001 C CNN
F 1 "+5V" H 2340 3198 50  0000 C CNN
F 2 "" H 2325 3025 50  0001 C CNN
F 3 "" H 2325 3025 50  0001 C CNN
	1    2325 3025
	1    0    0    -1  
$EndComp
$Comp
L power:GND #PWR0124
U 1 1 5FCB97A8
P 2500 3300
F 0 "#PWR0124" H 2500 3050 50  0001 C CNN
F 1 "GND" H 2505 3127 50  0000 C CNN
F 2 "" H 2500 3300 50  0001 C CNN
F 3 "" H 2500 3300 50  0001 C CNN
	1    2500 3300
	1    0    0    -1  
$EndComp
$Comp
L power:+5V #PWR0127
U 1 1 5FCB98CE
P 2975 3350
F 0 "#PWR0127" H 2975 3200 50  0001 C CNN
F 1 "+5V" H 2990 3523 50  0000 C CNN
F 2 "" H 2975 3350 50  0001 C CNN
F 3 "" H 2975 3350 50  0001 C CNN
	1    2975 3350
	1    0    0    -1  
$EndComp
Wire Wire Line
	2975 3350 3250 3350
$Comp
L power:GND #PWR0128
U 1 1 5FCB9B88
P 3250 3700
F 0 "#PWR0128" H 3250 3450 50  0001 C CNN
F 1 "GND" H 3255 3527 50  0000 C CNN
F 2 "" H 3250 3700 50  0001 C CNN
F 3 "" H 3250 3700 50  0001 C CNN
	1    3250 3700
	1    0    0    -1  
$EndComp
$Comp
L Connector:Conn_01x04_Male J8
U 1 1 5FCB9D35
P 1700 4175
F 0 "J8" H 1806 4453 50  0000 C CNN
F 1 "Conn_01x04_Male" H 1806 4362 50  0000 C CNN
F 2 "Connector_JST:JST_EH_B04B-EH-A_1x04_P2.50mm_Vertical" H 1700 4175 50  0001 C CNN
F 3 "~" H 1700 4175 50  0001 C CNN
	1    1700 4175
	1    0    0    -1  
$EndComp
$Comp
L power:GND #PWR0129
U 1 1 5FCBB392
P 4000 3725
F 0 "#PWR0129" H 4000 3475 50  0001 C CNN
F 1 "GND" H 4005 3552 50  0000 C CNN
F 2 "" H 4000 3725 50  0001 C CNN
F 3 "" H 4000 3725 50  0001 C CNN
	1    4000 3725
	1    0    0    -1  
$EndComp
Wire Wire Line
	4450 3725 4000 3725
Wire Wire Line
	4125 4075 4125 3825
Wire Wire Line
	4125 3825 4450 3825
Wire Wire Line
	1900 4075 4125 4075
Wire Wire Line
	4450 3925 4175 3925
Wire Wire Line
	4175 3925 4175 4175
Wire Wire Line
	1900 4175 4175 4175
Wire Wire Line
	4225 4275 4225 4025
Wire Wire Line
	4225 4025 4450 4025
Wire Wire Line
	1900 4275 4225 4275
Wire Wire Line
	4450 4125 4250 4125
Wire Wire Line
	4250 4125 4250 4375
Wire Wire Line
	1900 4375 4250 4375
Wire Wire Line
	4450 4225 4300 4225
Wire Wire Line
	4300 4225 4300 4475
Wire Wire Line
	4300 4475 4125 4475
$Comp
L power:GND #PWR0130
U 1 1 5FCBCE16
P 4125 4475
F 0 "#PWR0130" H 4125 4225 50  0001 C CNN
F 1 "GND" H 4130 4302 50  0000 C CNN
F 2 "" H 4125 4475 50  0001 C CNN
F 3 "" H 4125 4475 50  0001 C CNN
	1    4125 4475
	1    0    0    -1  
$EndComp
Wire Wire Line
	4450 4325 4350 4325
Wire Wire Line
	4350 4325 4350 4800
Wire Wire Line
	4350 4800 3875 4800
$Comp
L power:+5V #PWR0131
U 1 1 5FCBD4AF
P 3775 4800
F 0 "#PWR0131" H 3775 4650 50  0001 C CNN
F 1 "+5V" H 3790 4973 50  0000 C CNN
F 2 "" H 3775 4800 50  0001 C CNN
F 3 "" H 3775 4800 50  0001 C CNN
	1    3775 4800
	1    0    0    -1  
$EndComp
$Comp
L Device:C_Small C11
U 1 1 5FCBD4CA
P 3875 4900
F 0 "C11" H 3967 4946 50  0000 L CNN
F 1 "100uF" H 3967 4855 50  0000 L CNN
F 2 "Capacitor_SMD:C_1210_3225Metric" H 3875 4900 50  0001 C CNN
F 3 "~" H 3875 4900 50  0001 C CNN
	1    3875 4900
	1    0    0    -1  
$EndComp
Connection ~ 3875 4800
Wire Wire Line
	3875 4800 3775 4800
$Comp
L Device:C_Small C12
U 1 1 5FCBD516
P 4350 4900
F 0 "C12" H 4442 4946 50  0000 L CNN
F 1 "0.01uF" H 4442 4855 50  0000 L CNN
F 2 "Capacitor_SMD:C_0603_1608Metric" H 4350 4900 50  0001 C CNN
F 3 "~" H 4350 4900 50  0001 C CNN
	1    4350 4900
	1    0    0    -1  
$EndComp
Connection ~ 4350 4800
$Comp
L power:GND #PWR0132
U 1 1 5FCBD558
P 3875 5000
F 0 "#PWR0132" H 3875 4750 50  0001 C CNN
F 1 "GND" H 3880 4827 50  0000 C CNN
F 2 "" H 3875 5000 50  0001 C CNN
F 3 "" H 3875 5000 50  0001 C CNN
	1    3875 5000
	1    0    0    -1  
$EndComp
$Comp
L power:GND #PWR0133
U 1 1 5FCBD577
P 4350 5000
F 0 "#PWR0133" H 4350 4750 50  0001 C CNN
F 1 "GND" H 4355 4827 50  0000 C CNN
F 2 "" H 4350 5000 50  0001 C CNN
F 3 "" H 4350 5000 50  0001 C CNN
	1    4350 5000
	1    0    0    -1  
$EndComp
$Comp
L power:GND #PWR0134
U 1 1 5FCBD596
P 4550 4550
F 0 "#PWR0134" H 4550 4300 50  0001 C CNN
F 1 "GND" H 4555 4377 50  0000 C CNN
F 2 "" H 4550 4550 50  0001 C CNN
F 3 "" H 4550 4550 50  0001 C CNN
	1    4550 4550
	1    0    0    -1  
$EndComp
Wire Wire Line
	4450 4425 4450 4550
Wire Wire Line
	4450 4550 4550 4550
Wire Wire Line
	6050 3425 6425 3425
Text GLabel 9800 3925 0    50   Input ~ 0
nSleep
Text GLabel 9800 3825 0    50   Input ~ 0
DRVOFF
Wire Wire Line
	6050 3525 6425 3525
Wire Wire Line
	6050 3625 6425 3625
Text GLabel 9800 3725 0    50   Input ~ 0
DIR
Text GLabel 9800 3625 0    50   Input ~ 0
STEP
Wire Wire Line
	6425 3725 6050 3725
Wire Wire Line
	6050 3825 6425 3825
Wire Wire Line
	6050 3925 6425 3925
Wire Wire Line
	6050 4025 6425 4025
Text GLabel 9800 3525 0    50   Input ~ 0
SCLK
Text GLabel 6425 3925 2    50   Input ~ 0
SDI
Text GLabel 6425 4025 2    50   Input ~ 0
SDO
$Comp
L power:+3.3V #PWR0136
U 1 1 5FCC4D7C
P 7250 4025
F 0 "#PWR0136" H 7250 3875 50  0001 C CNN
F 1 "+3.3V" H 7265 4198 50  0000 C CNN
F 2 "" H 7250 4025 50  0001 C CNN
F 3 "" H 7250 4025 50  0001 C CNN
	1    7250 4025
	1    0    0    -1  
$EndComp
Wire Wire Line
	7250 4125 6050 4125
$Comp
L Device:C_Small C14
U 1 1 5FCC5931
P 7250 4350
F 0 "C14" H 7342 4396 50  0000 L CNN
F 1 "0.1uF" H 7342 4305 50  0000 L CNN
F 2 "Capacitor_SMD:C_0603_1608Metric" H 7250 4350 50  0001 C CNN
F 3 "~" H 7250 4350 50  0001 C CNN
	1    7250 4350
	1    0    0    -1  
$EndComp
Wire Wire Line
	7250 4250 7250 4125
Connection ~ 7250 4125
Wire Wire Line
	7250 4125 7250 4025
$Comp
L power:GND #PWR0137
U 1 1 5FCC7BF4
P 7250 4450
F 0 "#PWR0137" H 7250 4200 50  0001 C CNN
F 1 "GND" H 7255 4277 50  0000 C CNN
F 2 "" H 7250 4450 50  0001 C CNN
F 3 "" H 7250 4450 50  0001 C CNN
	1    7250 4450
	1    0    0    -1  
$EndComp
$Comp
L power:+3.3V #PWR0138
U 1 1 5FCC7C15
P 6975 4350
F 0 "#PWR0138" H 6975 4200 50  0001 C CNN
F 1 "+3.3V" H 6990 4523 50  0000 C CNN
F 2 "" H 6975 4350 50  0001 C CNN
F 3 "" H 6975 4350 50  0001 C CNN
	1    6975 4350
	1    0    0    -1  
$EndComp
Wire Wire Line
	6050 4225 6250 4225
Text GLabel 6250 4225 2    50   Input ~ 0
nSCS
$Comp
L Device:R_Small R15
U 1 1 5FCC88C3
P 6975 4675
F 0 "R15" H 7034 4721 50  0000 L CNN
F 1 "20k" H 7034 4630 50  0000 L CNN
F 2 "Resistor_SMD:R_0603_1608Metric" H 6975 4675 50  0001 C CNN
F 3 "~" H 6975 4675 50  0001 C CNN
	1    6975 4675
	1    0    0    -1  
$EndComp
$Comp
L Device:R_Small R16
U 1 1 5FCC8985
P 6975 4975
F 0 "R16" H 7034 5021 50  0000 L CNN
F 1 "80k" H 7034 4930 50  0000 L CNN
F 2 "Resistor_SMD:R_0603_1608Metric" H 6975 4975 50  0001 C CNN
F 3 "~" H 6975 4975 50  0001 C CNN
	1    6975 4975
	1    0    0    -1  
$EndComp
$Comp
L power:GND #PWR0139
U 1 1 5FCC89E5
P 6975 5150
F 0 "#PWR0139" H 6975 4900 50  0001 C CNN
F 1 "GND" H 6980 4977 50  0000 C CNN
F 2 "" H 6975 5150 50  0001 C CNN
F 3 "" H 6975 5150 50  0001 C CNN
	1    6975 5150
	1    0    0    -1  
$EndComp
Wire Wire Line
	6975 5150 6975 5075
Wire Wire Line
	6975 4575 6975 4350
$Comp
L Device:R_Small R14
U 1 1 5FCCBE07
P 6250 4525
F 0 "R14" H 6309 4571 50  0000 L CNN
F 1 "10K" H 6309 4480 50  0000 L CNN
F 2 "Resistor_SMD:R_0603_1608Metric" H 6250 4525 50  0001 C CNN
F 3 "~" H 6250 4525 50  0001 C CNN
	1    6250 4525
	1    0    0    -1  
$EndComp
$Comp
L Device:C_Small C13
U 1 1 5FCCBE63
P 6250 4900
F 0 "C13" H 6342 4946 50  0000 L CNN
F 1 "0.47uF" H 6342 4855 50  0000 L CNN
F 2 "Capacitor_SMD:C_0603_1608Metric" H 6250 4900 50  0001 C CNN
F 3 "~" H 6250 4900 50  0001 C CNN
	1    6250 4900
	1    0    0    -1  
$EndComp
Wire Wire Line
	6975 4775 6975 4800
Wire Wire Line
	6975 4800 6850 4800
Wire Wire Line
	6850 4800 6850 4325
Wire Wire Line
	6050 4325 6850 4325
Connection ~ 6975 4800
Wire Wire Line
	6975 4800 6975 4875
Wire Wire Line
	6250 4425 6050 4425
Wire Wire Line
	6250 4625 6250 4700
Wire Wire Line
	6250 4700 6150 4700
Wire Wire Line
	6150 4700 6150 4525
Wire Wire Line
	6150 4525 6050 4525
Connection ~ 6250 4700
Wire Wire Line
	6250 4700 6250 4800
$Comp
L power:GND #PWR0140
U 1 1 5FCCFC4E
P 6250 5000
F 0 "#PWR0140" H 6250 4750 50  0001 C CNN
F 1 "GND" H 6255 4827 50  0000 C CNN
F 2 "" H 6250 5000 50  0001 C CNN
F 3 "" H 6250 5000 50  0001 C CNN
	1    6250 5000
	1    0    0    -1  
$EndComp
Wire Notes Line
	10675 2975 8800 2975
Wire Notes Line
	8800 2975 8800 5125
Wire Notes Line
	8800 5125 10675 5125
Wire Notes Line
	10675 2975 10675 5125
Wire Notes Line
	8800 3150 10675 3150
Wire Notes Line
	7600 5550 1275 5550
Wire Notes Line
	1275 2700 7600 2700
Wire Notes Line
	7600 2700 7600 5550
Text HLabel 10275 3325 2    50   Input ~ 0
SDO
Text HLabel 10275 3425 2    50   Input ~ 0
SDI
Text HLabel 10275 3525 2    50   Input ~ 0
SCLK
Text HLabel 10275 3625 2    50   Input ~ 0
STEP
Text HLabel 10275 3725 2    50   Input ~ 0
DIR
Text HLabel 10275 3825 2    50   Input ~ 0
DRVOFF
Text HLabel 10275 3925 2    50   Input ~ 0
nSleep
Text Notes 9450 3100 0    50   ~ 0
Hiarchies pinnen\n
Text GLabel 9800 3325 0    50   Input ~ 0
SDO
Text GLabel 9800 3425 0    50   Input ~ 0
SDI
Wire Wire Line
	10275 3325 9800 3325
Wire Wire Line
	9800 3425 10275 3425
Wire Wire Line
	10275 3525 9800 3525
Wire Wire Line
	9800 3625 10275 3625
Wire Wire Line
	10275 3725 9800 3725
Wire Wire Line
	9800 3825 10275 3825
Wire Wire Line
	10275 3925 9800 3925
Text GLabel 9800 4025 0    50   Input ~ 0
nSCS
Text HLabel 10300 4025 2    50   Input ~ 0
nSCS
Wire Wire Line
	10300 4025 9800 4025
Text GLabel 6425 3425 2    50   Input ~ 0
nSleep
Text GLabel 6425 3525 2    50   Input ~ 0
DRVOFF
Text GLabel 6425 3625 2    50   Input ~ 0
DIR
Text GLabel 6425 3725 2    50   Input ~ 0
STEP
Text GLabel 6425 3825 2    50   Input ~ 0
SCLK
$Comp
L power:GND #PWR0135
U 1 1 6015D511
P 6925 3325
F 0 "#PWR0135" H 6925 3075 50  0001 C CNN
F 1 "GND" H 6930 3152 50  0000 C CNN
F 2 "" H 6925 3325 50  0001 C CNN
F 3 "" H 6925 3325 50  0001 C CNN
	1    6925 3325
	1    0    0    -1  
$EndComp
Wire Wire Line
	6925 3325 6050 3325
Wire Notes Line
	3475 2675 3475 1200
Wire Notes Line
	3475 1200 1275 1200
Wire Notes Line
	1275 1200 1275 5550
$Comp
L power:+5V #PWR0154
U 1 1 60868A2F
P 1750 1575
F 0 "#PWR0154" H 1750 1425 50  0001 C CNN
F 1 "+5V" H 1765 1748 50  0000 C CNN
F 2 "" H 1750 1575 50  0001 C CNN
F 3 "" H 1750 1575 50  0001 C CNN
	1    1750 1575
	1    0    0    -1  
$EndComp
$Comp
L Device:Battery_Cell BT2
U 1 1 60868A9B
P 1750 1775
F 0 "BT2" H 1868 1871 50  0000 L CNN
F 1 "Battery_Cell" H 1868 1780 50  0000 L CNN
F 2 "" V 1750 1835 50  0001 C CNN
F 3 "~" V 1750 1835 50  0001 C CNN
	1    1750 1775
	1    0    0    -1  
$EndComp
$Comp
L power:GND #PWR0155
U 1 1 60868B29
P 1750 1875
F 0 "#PWR0155" H 1750 1625 50  0001 C CNN
F 1 "GND" H 1755 1702 50  0000 C CNN
F 2 "" H 1750 1875 50  0001 C CNN
F 3 "" H 1750 1875 50  0001 C CNN
	1    1750 1875
	1    0    0    -1  
$EndComp
$EndSCHEMATC
