EESchema Schematic File Version 4
LIBS:create4care1_STM32_motor-cache
EELAYER 26 0
EELAYER END
$Descr A4 11693 8268
encoding utf-8
Sheet 2 4
Title ""
Date ""
Rev ""
Comp ""
Comment1 ""
Comment2 ""
Comment3 ""
Comment4 ""
$EndDescr
Wire Notes Line
	6975 7775 475  7775
Wire Notes Line
	11225 6525 6975 6525
Wire Notes Line
	11225 3450 11225 6525
Text Notes 9325 5150 0    50   ~ 0
STM32 L4P5CGT6 Crystal\n
Text GLabel 1075 4325 0    50   BiDi ~ 0
GPIO_PA0
Text GLabel 1075 4825 0    50   BiDi ~ 0
DAC1_OUT2
Text GLabel 1075 4525 0    50   Output ~ 0
USART2_TX
Text GLabel 1075 4625 0    50   Input ~ 0
USART2_RX
Text GLabel 1075 4725 0    50   BiDi ~ 0
DIR
Text GLabel 1075 5425 0    50   Input ~ 0
SPI1_MISO
Text GLabel 1075 5525 0    50   Output ~ 0
SPI1_MOSI
Text GLabel 1075 4425 0    50   BiDi ~ 0
SPI1_SCK
Text GLabel 1075 5125 0    50   BiDi ~ 0
GPIO_PA8
Text GLabel 1075 5225 0    50   Output ~ 0
USART1_TX
Text GLabel 1075 5325 0    50   Input ~ 0
USART1_RX
Text GLabel 1075 5625 0    50   BiDi ~ 0
SWDIO
Text GLabel 1075 5725 0    50   Input ~ 0
SWCLK
Text GLabel 1075 5825 0    50   Output ~ 0
SPI1NSS
Text GLabel 6150 4325 2    50   BiDi ~ 0
GPIO_PC13
Text GLabel 6150 4425 2    50   BiDi ~ 0
GPIO_PC14
Text GLabel 6150 4725 2    50   Input ~ 0
RCC_IN
Text GLabel 6150 4925 2    50   BiDi ~ 0
GPIO_PH3
Text GLabel 6150 4525 2    50   BiDi ~ 0
GPIO_PC15
Text GLabel 6150 4825 2    50   Input ~ 0
RCC_OUT
Wire Wire Line
	1500 4425 1075 4425
Wire Wire Line
	1075 4525 1500 4525
Wire Wire Line
	1075 4625 1500 4625
Wire Wire Line
	1075 4725 1500 4725
Wire Wire Line
	1500 4925 1075 4925
Wire Wire Line
	1075 5025 1500 5025
Wire Wire Line
	1500 5125 1075 5125
Wire Wire Line
	1075 5225 1500 5225
Wire Wire Line
	1500 5325 1075 5325
Wire Wire Line
	1075 5425 1500 5425
Wire Wire Line
	1075 5525 1500 5525
Wire Wire Line
	1500 5625 1075 5625
Wire Wire Line
	1075 5725 1500 5725
Wire Wire Line
	1500 5825 1075 5825
Wire Wire Line
	6150 4325 5700 4325
Wire Wire Line
	6150 4425 5700 4425
$Comp
L Device:Crystal Y1
U 1 1 5F9B1A05
P 10300 5875
F 0 "Y1" V 10254 6006 50  0000 L CNN
F 1 "8MHz" V 10345 6006 50  0000 L CNN
F 2 "Crystal:Crystal_SMD_Abracon_ABM3-2Pin_5.0x3.2mm" H 10300 5875 50  0001 C CNN
F 3 "~" H 10300 5875 50  0001 C CNN
	1    10300 5875
	0    1    1    0   
$EndComp
$Comp
L Device:C_Small C6
U 1 1 5F9B1B4E
P 10750 5575
F 0 "C6" V 10521 5575 50  0000 C CNN
F 1 "26pF" V 10612 5575 50  0000 C CNN
F 2 "Capacitor_SMD:C_0603_1608Metric" H 10750 5575 50  0001 C CNN
F 3 "~" H 10750 5575 50  0001 C CNN
	1    10750 5575
	0    1    1    0   
$EndComp
$Comp
L Device:C_Small C7
U 1 1 5F9B1BB8
P 10750 6275
F 0 "C7" V 10521 6275 50  0000 C CNN
F 1 "26pF" V 10612 6275 50  0000 C CNN
F 2 "Capacitor_SMD:C_0603_1608Metric" H 10750 6275 50  0001 C CNN
F 3 "~" H 10750 6275 50  0001 C CNN
	1    10750 6275
	0    1    1    0   
$EndComp
$Comp
L Device:R_Small R9
U 1 1 5F9B1C88
P 9875 6275
F 0 "R9" V 9679 6275 50  0000 C CNN
F 1 "765ohm" V 9770 6275 50  0000 C CNN
F 2 "Resistor_SMD:R_0603_1608Metric" H 9875 6275 50  0001 C CNN
F 3 "~" H 9875 6275 50  0001 C CNN
	1    9875 6275
	0    -1   -1   0   
$EndComp
Wire Wire Line
	10650 5575 10300 5575
Wire Wire Line
	10300 5575 10300 5725
Wire Wire Line
	10300 6025 10300 6275
Wire Wire Line
	10300 6275 10650 6275
Wire Wire Line
	10300 6275 9975 6275
Connection ~ 10300 6275
$Comp
L power:GND #PWR0101
U 1 1 5F9B2CE3
P 11075 6275
F 0 "#PWR0101" H 11075 6025 50  0001 C CNN
F 1 "GND" H 11080 6102 50  0000 C CNN
F 2 "" H 11075 6275 50  0001 C CNN
F 3 "" H 11075 6275 50  0001 C CNN
	1    11075 6275
	1    0    0    -1  
$EndComp
Wire Wire Line
	11075 6275 10850 6275
$Comp
L power:GND #PWR0102
U 1 1 5F9B32CB
P 11050 5575
F 0 "#PWR0102" H 11050 5325 50  0001 C CNN
F 1 "GND" H 11055 5402 50  0000 C CNN
F 2 "" H 11050 5575 50  0001 C CNN
F 3 "" H 11050 5575 50  0001 C CNN
	1    11050 5575
	1    0    0    -1  
$EndComp
Wire Wire Line
	11050 5575 10850 5575
Wire Wire Line
	10300 5575 9550 5575
Connection ~ 10300 5575
Wire Wire Line
	9775 6275 9550 6275
Text GLabel 9550 6275 0    50   Input ~ 0
RCC_OUT
Text GLabel 9550 5575 0    50   Input ~ 0
RCC_IN
$Comp
L stm32l4p5power:STM32L4P5CGT6 U1
U 1 1 5F9B4F8C
P 1500 4325
F 0 "U1" H 3600 4712 60  0000 C CNN
F 1 "STM32L4P5CGT6" H 3600 4606 60  0000 C CNN
F 2 "Package_QFP:LQFP-48_7x7mm_P0.5mm" H 3600 4565 60  0001 C CNN
F 3 "" H 1500 4325 60  0000 C CNN
	1    1500 4325
	1    0    0    -1  
$EndComp
$Comp
L stm32l4p5power:STM32L4P5CGT6 U1
U 2 1 5F9B5133
P 2150 2950
F 0 "U1" H 3450 3337 60  0000 C CNN
F 1 "STM32L4P5CGT6" H 3450 3231 60  0000 C CNN
F 2 "Package_QFP:LQFP-48_7x7mm_P0.5mm" H 4250 3190 60  0001 C CNN
F 3 "" H 2150 2950 60  0000 C CNN
	2    2150 2950
	1    0    0    -1  
$EndComp
Wire Wire Line
	5700 4525 6150 4525
Wire Wire Line
	5700 4825 6150 4825
Wire Wire Line
	5700 4925 6150 4925
Wire Wire Line
	6150 4725 5700 4725
Text GLabel 6150 5125 2    50   Input ~ 0
NRST
Wire Wire Line
	6150 5125 5700 5125
Wire Notes Line
	11225 5200 6975 5200
Text GLabel 1075 6000 0    50   Output ~ 0
TM3_CH3
Text GLabel 1075 6100 0    50   BiDi ~ 0
TM3_CH4
Text GLabel 1075 6200 0    50   Output ~ 0
GPIO_PB2
Text GLabel 1075 7025 0    50   Output ~ 0
USART3_TX
Text GLabel 1075 7125 0    50   Input ~ 0
USART3_RX
Text GLabel 1075 6300 0    50   Output ~ 0
NsleepMotor
Text GLabel 1075 6400 0    50   BiDi ~ 0
GPIO_PB4
Text GLabel 1075 6500 0    50   BiDi ~ 0
GPIO_PB5
Text GLabel 1075 6600 0    50   Output ~ 0
I2C1_SCL
Text GLabel 1075 6900 0    50   BiDi ~ 0
GPIO_PB9
Text GLabel 1075 6800 0    50   BiDi ~ 0
GPIO_PB8
Text GLabel 1075 6700 0    50   BiDi ~ 0
I2C1_SDA
Text GLabel 1075 7225 0    50   BiDi ~ 0
SPI2_Nss
Text GLabel 1075 7325 0    50   Output ~ 0
SPI2_SCK
Text GLabel 1075 7425 0    50   Input ~ 0
SPI2_MISO
Text GLabel 1075 7525 0    50   Output ~ 0
SPI2_MOSI
Wire Wire Line
	1500 6025 1150 6025
Wire Wire Line
	1150 6025 1150 6000
Wire Wire Line
	1150 6000 1075 6000
Wire Wire Line
	1075 6100 1500 6100
Wire Wire Line
	1500 6100 1500 6125
Wire Wire Line
	1500 6225 1075 6225
Wire Wire Line
	1075 6225 1075 6200
Wire Wire Line
	1075 6300 1500 6300
Wire Wire Line
	1500 6300 1500 6325
Wire Wire Line
	1075 6500 1500 6500
Wire Wire Line
	1500 6500 1500 6525
Wire Wire Line
	1500 6625 1075 6625
Wire Wire Line
	1075 6625 1075 6600
Wire Wire Line
	1075 6700 1500 6700
Wire Wire Line
	1500 6700 1500 6725
Wire Wire Line
	1075 7025 1500 7025
Wire Wire Line
	1500 7125 1075 7125
Wire Wire Line
	1075 7225 1500 7225
Wire Wire Line
	1075 7325 1500 7325
Wire Wire Line
	1500 7425 1075 7425
Wire Wire Line
	1075 7525 1500 7525
$Comp
L Connector:Conn_01x02_Male J2
U 1 1 5F9CD2ED
P 1975 975
F 0 "J2" H 1948 855 50  0000 R CNN
F 1 "Conn_01x02_Male" H 1948 946 50  0000 R CNN
F 2 "Connector_JST:JST_EH_B02B-EH-A_1x02_P2.50mm_Vertical" H 1975 975 50  0001 C CNN
F 3 "~" H 1975 975 50  0001 C CNN
	1    1975 975 
	-1   0    0    1   
$EndComp
$Comp
L power:+3.3V #PWR0103
U 1 1 5F9CD4F1
P 1700 800
F 0 "#PWR0103" H 1700 650 50  0001 C CNN
F 1 "+3.3V" H 1715 973 50  0000 C CNN
F 2 "" H 1700 800 50  0001 C CNN
F 3 "" H 1700 800 50  0001 C CNN
	1    1700 800 
	1    0    0    -1  
$EndComp
$Comp
L power:GND #PWR0104
U 1 1 5F9CD54B
P 1700 975
F 0 "#PWR0104" H 1700 725 50  0001 C CNN
F 1 "GND" H 1705 802 50  0000 C CNN
F 2 "" H 1700 975 50  0001 C CNN
F 3 "" H 1700 975 50  0001 C CNN
	1    1700 975 
	1    0    0    -1  
$EndComp
Wire Wire Line
	1775 975  1700 975 
Wire Wire Line
	1775 875  1700 875 
Wire Wire Line
	1700 875  1700 800 
$Comp
L Device:C_Small C1
U 1 1 5F9CFBBF
P 4150 2450
F 0 "C1" H 4242 2496 50  0000 L CNN
F 1 "4.7uF" H 4242 2405 50  0000 L CNN
F 2 "Capacitor_SMD:C_0603_1608Metric" H 4150 2450 50  0001 C CNN
F 3 "~" H 4150 2450 50  0001 C CNN
	1    4150 2450
	1    0    0    -1  
$EndComp
$Comp
L Device:C_Small C2
U 1 1 5F9CFC8E
P 4550 2450
F 0 "C2" H 4642 2496 50  0000 L CNN
F 1 "100nF" H 4642 2405 50  0000 L CNN
F 2 "Capacitor_SMD:C_0603_1608Metric" H 4550 2450 50  0001 C CNN
F 3 "~" H 4550 2450 50  0001 C CNN
	1    4550 2450
	1    0    0    -1  
$EndComp
$Comp
L Device:C_Small C3
U 1 1 5F9CFD02
P 4975 2450
F 0 "C3" H 5067 2496 50  0000 L CNN
F 1 "100nF" H 5067 2405 50  0000 L CNN
F 2 "Capacitor_SMD:C_0603_1608Metric" H 4975 2450 50  0001 C CNN
F 3 "~" H 4975 2450 50  0001 C CNN
	1    4975 2450
	1    0    0    -1  
$EndComp
$Comp
L Device:Ferrite_Bead_Small FB1
U 1 1 5F9E48D7
P 5625 2775
F 0 "FB1" H 5725 2821 50  0000 L CNN
F 1 "Ferrite_Bead_Small" H 5725 2730 50  0000 L CNN
F 2 "Inductor_SMD:L_0603_1608Metric" V 5555 2775 50  0001 C CNN
F 3 "~" H 5625 2775 50  0001 C CNN
	1    5625 2775
	1    0    0    -1  
$EndComp
$Comp
L Device:C_Small C4
U 1 1 5F9E5D86
P 5725 3050
F 0 "C4" H 5633 3004 50  0000 R CNN
F 1 "1uF" H 5633 3095 50  0000 R CNN
F 2 "Capacitor_SMD:C_0603_1608Metric" H 5725 3050 50  0001 C CNN
F 3 "~" H 5725 3050 50  0001 C CNN
	1    5725 3050
	-1   0    0    1   
$EndComp
$Comp
L Device:C_Small C5
U 1 1 5F9E5E32
P 6025 3050
F 0 "C5" H 5933 3004 50  0000 R CNN
F 1 "100nF" H 5933 3095 50  0000 R CNN
F 2 "Capacitor_SMD:C_0603_1608Metric" H 6025 3050 50  0001 C CNN
F 3 "~" H 6025 3050 50  0001 C CNN
	1    6025 3050
	-1   0    0    1   
$EndComp
Wire Wire Line
	4150 2350 4550 2350
Wire Wire Line
	4975 2350 4825 2350
Connection ~ 4550 2350
Connection ~ 4975 2350
Wire Wire Line
	5750 2575 5625 2575
Wire Wire Line
	5625 2575 5625 2675
Wire Wire Line
	5625 2875 5725 2875
Wire Wire Line
	5725 2875 5725 2950
Wire Wire Line
	5725 2950 5925 2950
Connection ~ 5725 2950
Wire Wire Line
	5925 2950 5925 3450
Wire Wire Line
	5925 3450 4750 3450
Connection ~ 5925 2950
Wire Wire Line
	5925 2950 6025 2950
NoConn ~ 4750 3250
Wire Wire Line
	4975 2350 5425 2350
$Comp
L power:GND #PWR0105
U 1 1 5F9F1C49
P 5275 2625
F 0 "#PWR0105" H 5275 2375 50  0001 C CNN
F 1 "GND" H 5280 2452 50  0000 C CNN
F 2 "" H 5275 2625 50  0001 C CNN
F 3 "" H 5275 2625 50  0001 C CNN
	1    5275 2625
	1    0    0    -1  
$EndComp
Wire Wire Line
	4975 2575 4975 2550
Connection ~ 4975 2575
Wire Wire Line
	4150 2575 4150 2550
Wire Wire Line
	5275 2575 5275 2625
Wire Wire Line
	4975 2575 5275 2575
$Comp
L power:GND #PWR0106
U 1 1 5F9F9222
P 5725 3150
F 0 "#PWR0106" H 5725 2900 50  0001 C CNN
F 1 "GND" H 5730 2977 50  0000 C CNN
F 2 "" H 5725 3150 50  0001 C CNN
F 3 "" H 5725 3150 50  0001 C CNN
	1    5725 3150
	1    0    0    -1  
$EndComp
$Comp
L power:GND #PWR0107
U 1 1 5F9F9247
P 6025 3150
F 0 "#PWR0107" H 6025 2900 50  0001 C CNN
F 1 "GND" H 6030 2977 50  0000 C CNN
F 2 "" H 6025 3150 50  0001 C CNN
F 3 "" H 6025 3150 50  0001 C CNN
	1    6025 3150
	1    0    0    -1  
$EndComp
Wire Wire Line
	4150 2350 3975 2350
Connection ~ 4150 2350
$Comp
L power:+3.3V #PWR0108
U 1 1 5F9FB212
P 3975 2350
F 0 "#PWR0108" H 3975 2200 50  0001 C CNN
F 1 "+3.3V" H 3800 2400 50  0000 C CNN
F 2 "" H 3975 2350 50  0001 C CNN
F 3 "" H 3975 2350 50  0001 C CNN
	1    3975 2350
	1    0    0    -1  
$EndComp
Wire Wire Line
	4825 2350 4825 2950
Wire Wire Line
	4825 2950 4750 2950
Connection ~ 4825 2350
Wire Wire Line
	4825 2350 4550 2350
Wire Wire Line
	5425 2350 5425 3050
Wire Wire Line
	5425 3050 4750 3050
NoConn ~ 2150 3550
$Comp
L power:GND #PWR0109
U 1 1 5FA03F40
P 1750 3025
F 0 "#PWR0109" H 1750 2775 50  0001 C CNN
F 1 "GND" H 1755 2852 50  0000 C CNN
F 2 "" H 1750 3025 50  0001 C CNN
F 3 "" H 1750 3025 50  0001 C CNN
	1    1750 3025
	1    0    0    -1  
$EndComp
$Comp
L power:GND #PWR0110
U 1 1 5FA03F89
P 1750 3350
F 0 "#PWR0110" H 1750 3100 50  0001 C CNN
F 1 "GND" H 1755 3177 50  0000 C CNN
F 2 "" H 1750 3350 50  0001 C CNN
F 3 "" H 1750 3350 50  0001 C CNN
	1    1750 3350
	1    0    0    -1  
$EndComp
Wire Wire Line
	2150 2950 2150 3050
Connection ~ 2150 3050
Wire Wire Line
	2150 3050 2150 3150
Wire Wire Line
	2150 3050 1900 3050
Wire Wire Line
	1900 3050 1900 3025
Wire Wire Line
	1900 3025 1750 3025
Wire Wire Line
	5750 2350 5425 2350
Connection ~ 5425 2350
Wire Wire Line
	1750 3350 2150 3350
$Comp
L Device:LED D6
U 1 1 5FA13F1E
P 5925 3650
F 0 "D6" V 5963 3533 50  0000 R CNN
F 1 "LED" V 5872 3533 50  0000 R CNN
F 2 "LED_SMD:LED_0603_1608Metric" H 5925 3650 50  0001 C CNN
F 3 "~" H 5925 3650 50  0001 C CNN
	1    5925 3650
	0    -1   -1   0   
$EndComp
$Comp
L Device:R_Small R3
U 1 1 5FA1401C
P 5925 3950
F 0 "R3" H 5984 3996 50  0000 L CNN
F 1 "330" H 5984 3905 50  0000 L CNN
F 2 "Resistor_SMD:R_0603_1608Metric" H 5925 3950 50  0001 C CNN
F 3 "~" H 5925 3950 50  0001 C CNN
	1    5925 3950
	1    0    0    -1  
$EndComp
$Comp
L power:GND #PWR0111
U 1 1 5FA14098
P 5925 4050
F 0 "#PWR0111" H 5925 3800 50  0001 C CNN
F 1 "GND" H 5930 3877 50  0000 C CNN
F 2 "" H 5925 4050 50  0001 C CNN
F 3 "" H 5925 4050 50  0001 C CNN
	1    5925 4050
	1    0    0    -1  
$EndComp
Wire Wire Line
	5925 3450 5925 3500
Connection ~ 5925 3450
Wire Wire Line
	5925 3800 5925 3850
$Comp
L Connector:Conn_01x04_Male J1
U 1 1 5FA19A21
P 2325 1675
F 0 "J1" H 2298 1555 50  0000 R CNN
F 1 "Conn_01x04_Male" H 2298 1646 50  0000 R CNN
F 2 "Connector_JST:JST_EH_B04B-EH-A_1x04_P2.50mm_Vertical" H 2325 1675 50  0001 C CNN
F 3 "~" H 2325 1675 50  0001 C CNN
	1    2325 1675
	-1   0    0    1   
$EndComp
$Comp
L power:GND #PWR0112
U 1 1 5FA19E48
P 2125 1775
F 0 "#PWR0112" H 2125 1525 50  0001 C CNN
F 1 "GND" H 2130 1602 50  0000 C CNN
F 2 "" H 2125 1775 50  0001 C CNN
F 3 "" H 2125 1775 50  0001 C CNN
	1    2125 1775
	1    0    0    -1  
$EndComp
$Comp
L power:+3.3V #PWR0113
U 1 1 5FA19EA5
P 1875 1450
F 0 "#PWR0113" H 1875 1300 50  0001 C CNN
F 1 "+3.3V" H 1890 1623 50  0000 C CNN
F 2 "" H 1875 1450 50  0001 C CNN
F 3 "" H 1875 1450 50  0001 C CNN
	1    1875 1450
	1    0    0    -1  
$EndComp
Wire Wire Line
	2125 1475 1875 1475
Wire Wire Line
	1875 1475 1875 1450
Wire Wire Line
	2125 1575 1750 1575
$Comp
L power:GND #PWR0114
U 1 1 5FA2554E
P 1000 1725
F 0 "#PWR0114" H 1000 1475 50  0001 C CNN
F 1 "GND" H 1005 1552 50  0000 C CNN
F 2 "" H 1000 1725 50  0001 C CNN
F 3 "" H 1000 1725 50  0001 C CNN
	1    1000 1725
	1    0    0    -1  
$EndComp
Wire Wire Line
	1350 1675 1175 1675
Wire Wire Line
	1175 1675 1175 1725
Wire Wire Line
	1750 1575 1750 1375
Wire Wire Line
	1175 1725 1000 1725
Wire Wire Line
	1175 1775 1175 2000
Wire Wire Line
	1175 2000 775  2000
Text GLabel 775  2000 0    50   Input ~ 0
SWDIO
Text GLabel 775  1375 0    50   Input ~ 0
SWCLK
$Comp
L power:GND #PWR0115
U 1 1 5FA5C7F9
P 8650 1300
F 0 "#PWR0115" H 8650 1050 50  0001 C CNN
F 1 "GND" H 8655 1127 50  0000 C CNN
F 2 "" H 8650 1300 50  0001 C CNN
F 3 "" H 8650 1300 50  0001 C CNN
	1    8650 1300
	1    0    0    -1  
$EndComp
$Comp
L Connector:Conn_01x02_Male J3
U 1 1 5FA5C7FF
P 10350 1250
F 0 "J3" H 10323 1130 50  0000 R CNN
F 1 "Conn_01x02_Male" H 10323 1221 50  0000 R CNN
F 2 "Connector_JST:JST_EH_B02B-EH-A_1x02_P2.50mm_Vertical" H 10350 1250 50  0001 C CNN
F 3 "~" H 10350 1250 50  0001 C CNN
	1    10350 1250
	-1   0    0    1   
$EndComp
$Comp
L power:GND #PWR0116
U 1 1 5FA5C80D
P 9100 1300
F 0 "#PWR0116" H 9100 1050 50  0001 C CNN
F 1 "GND" H 9105 1127 50  0000 C CNN
F 2 "" H 9100 1300 50  0001 C CNN
F 3 "" H 9100 1300 50  0001 C CNN
	1    9100 1300
	1    0    0    -1  
$EndComp
Wire Wire Line
	8650 950  8650 1000
Wire Wire Line
	9025 1000 9025 1550
Wire Wire Line
	9025 1550 8425 1550
Wire Wire Line
	8650 950  8450 950 
Connection ~ 8650 950 
$Comp
L power:+3.3V #PWR0117
U 1 1 5FA8810F
P 9350 1500
F 0 "#PWR0117" H 9350 1350 50  0001 C CNN
F 1 "+3.3V" H 9365 1673 50  0000 C CNN
F 2 "" H 9350 1500 50  0001 C CNN
F 3 "" H 9350 1500 50  0001 C CNN
	1    9350 1500
	1    0    0    -1  
$EndComp
$Comp
L Device:R_Small R6
U 1 1 5FA881A6
P 9525 1675
F 0 "R6" H 9584 1721 50  0000 L CNN
F 1 "4.7k" H 9584 1630 50  0000 L CNN
F 2 "Resistor_SMD:R_0603_1608Metric" H 9525 1675 50  0001 C CNN
F 3 "~" H 9525 1675 50  0001 C CNN
	1    9525 1675
	1    0    0    -1  
$EndComp
$Comp
L Device:R_Small R8
U 1 1 5FA88376
P 10075 1725
F 0 "R8" H 10134 1771 50  0000 L CNN
F 1 "4.7k" H 10134 1680 50  0000 L CNN
F 2 "Resistor_SMD:R_0603_1608Metric" H 10075 1725 50  0001 C CNN
F 3 "~" H 10075 1725 50  0001 C CNN
	1    10075 1725
	1    0    0    -1  
$EndComp
Wire Wire Line
	10075 1625 10075 1575
Wire Wire Line
	10075 1575 9525 1575
Wire Wire Line
	9525 1775 9525 1950
Wire Wire Line
	9525 1950 9050 1950
Connection ~ 9525 1950
Wire Wire Line
	10075 1825 10075 2075
Wire Wire Line
	10075 2075 9550 2075
Wire Wire Line
	10325 2075 10325 2050
Connection ~ 10075 2075
$Comp
L Connector:Conn_01x02_Male J5
U 1 1 5FAB0B53
P 10525 2050
F 0 "J5" H 10498 1930 50  0000 R CNN
F 1 "Conn_01x02_Male" H 10498 2021 50  0000 R CNN
F 2 "Connector_JST:JST_EH_B02B-EH-A_1x02_P2.50mm_Vertical" H 10525 2050 50  0001 C CNN
F 3 "~" H 10525 2050 50  0001 C CNN
	1    10525 2050
	-1   0    0    1   
$EndComp
$Comp
L power:+3.3V #PWR0118
U 1 1 5FAB0E0A
P 9750 2575
F 0 "#PWR0118" H 9750 2425 50  0001 C CNN
F 1 "+3.3V" H 9765 2748 50  0000 C CNN
F 2 "" H 9750 2575 50  0001 C CNN
F 3 "" H 9750 2575 50  0001 C CNN
	1    9750 2575
	1    0    0    -1  
$EndComp
$Comp
L Device:R_Small R10
U 1 1 5FAB0E10
P 9950 2650
F 0 "R10" H 10009 2696 50  0000 L CNN
F 1 "4.7k" H 10009 2605 50  0000 L CNN
F 2 "Resistor_SMD:R_0603_1608Metric" H 9950 2650 50  0001 C CNN
F 3 "~" H 9950 2650 50  0001 C CNN
	1    9950 2650
	1    0    0    -1  
$EndComp
$Comp
L Device:R_Small R12
U 1 1 5FAB0E17
P 10500 2700
F 0 "R12" H 10559 2746 50  0000 L CNN
F 1 "4.7k" H 10559 2655 50  0000 L CNN
F 2 "Resistor_SMD:R_0603_1608Metric" H 10500 2700 50  0001 C CNN
F 3 "~" H 10500 2700 50  0001 C CNN
	1    10500 2700
	1    0    0    -1  
$EndComp
Wire Wire Line
	10500 2600 10500 2550
Wire Wire Line
	10500 2550 9950 2550
Wire Wire Line
	9950 2750 9950 2925
Connection ~ 9950 2925
Wire Wire Line
	10500 2800 10500 3050
Wire Wire Line
	10500 3050 9975 3050
Wire Wire Line
	10750 3050 10750 3025
Connection ~ 10500 3050
$Comp
L Connector:Conn_01x02_Male J6
U 1 1 5FAB0E2B
P 10950 3025
F 0 "J6" H 10923 2905 50  0000 R CNN
F 1 "Conn_01x02_Male" H 10923 2996 50  0000 R CNN
F 2 "Connector_JST:JST_EH_B02B-EH-A_1x02_P2.50mm_Vertical" H 10950 3025 50  0001 C CNN
F 3 "~" H 10950 3025 50  0001 C CNN
	1    10950 3025
	-1   0    0    1   
$EndComp
$Comp
L power:+3.3V #PWR0119
U 1 1 5FAF5E6D
P 10225 3750
F 0 "#PWR0119" H 10225 3600 50  0001 C CNN
F 1 "+3.3V" H 10240 3923 50  0000 C CNN
F 2 "" H 10225 3750 50  0001 C CNN
F 3 "" H 10225 3750 50  0001 C CNN
	1    10225 3750
	1    0    0    -1  
$EndComp
$Comp
L Device:R_Small R11
U 1 1 5FAF5E73
P 10225 4025
F 0 "R11" H 10284 4071 50  0000 L CNN
F 1 "4.7k" H 10284 3980 50  0000 L CNN
F 2 "Resistor_SMD:R_0603_1608Metric" H 10225 4025 50  0001 C CNN
F 3 "~" H 10225 4025 50  0001 C CNN
	1    10225 4025
	1    0    0    -1  
$EndComp
$Comp
L Device:R_Small R13
U 1 1 5FAF5E7A
P 10775 4025
F 0 "R13" H 10834 4071 50  0000 L CNN
F 1 "4.7k" H 10834 3980 50  0000 L CNN
F 2 "Resistor_SMD:R_0603_1608Metric" H 10775 4025 50  0001 C CNN
F 3 "~" H 10775 4025 50  0001 C CNN
	1    10775 4025
	1    0    0    -1  
$EndComp
Wire Wire Line
	10775 3925 10225 3925
Wire Wire Line
	10225 3925 10225 3750
Connection ~ 10225 3925
$Comp
L Connector:Conn_01x02_Male J7
U 1 1 5FAF5E8E
P 11100 4825
F 0 "J7" H 11073 4705 50  0000 R CNN
F 1 "Conn_01x02_Male" H 11073 4796 50  0000 R CNN
F 2 "Connector_JST:JST_EH_B02B-EH-A_1x02_P2.50mm_Vertical" H 11100 4825 50  0001 C CNN
F 3 "~" H 11100 4825 50  0001 C CNN
	1    11100 4825
	-1   0    0    1   
$EndComp
$Comp
L Device:R_Small R7
U 1 1 5FB1C551
P 7800 3350
F 0 "R7" H 7859 3396 50  0000 L CNN
F 1 "4.7k" H 7859 3305 50  0000 L CNN
F 2 "Resistor_SMD:R_0603_1608Metric" H 7800 3350 50  0001 C CNN
F 3 "~" H 7800 3350 50  0001 C CNN
	1    7800 3350
	1    0    0    -1  
$EndComp
$Comp
L Device:R_Small R5
U 1 1 5FB1C5F1
P 7350 3350
F 0 "R5" H 7409 3396 50  0000 L CNN
F 1 "4.7k" H 7409 3305 50  0000 L CNN
F 2 "Resistor_SMD:R_0603_1608Metric" H 7350 3350 50  0001 C CNN
F 3 "~" H 7350 3350 50  0001 C CNN
	1    7350 3350
	1    0    0    -1  
$EndComp
$Comp
L Device:R_Small R4
U 1 1 5FB1C6BB
P 6900 3350
F 0 "R4" H 6959 3396 50  0000 L CNN
F 1 "4.7k" H 6959 3305 50  0000 L CNN
F 2 "Resistor_SMD:R_0603_1608Metric" H 6900 3350 50  0001 C CNN
F 3 "~" H 6900 3350 50  0001 C CNN
	1    6900 3350
	1    0    0    -1  
$EndComp
$Comp
L power:+3.3V #PWR0120
U 1 1 5FB1C92D
P 7125 2675
F 0 "#PWR0120" H 7125 2525 50  0001 C CNN
F 1 "+3.3V" H 7140 2848 50  0000 C CNN
F 2 "" H 7125 2675 50  0001 C CNN
F 3 "" H 7125 2675 50  0001 C CNN
	1    7125 2675
	1    0    0    -1  
$EndComp
Text GLabel 9550 2075 0    50   Input ~ 0
USART1_TX
Text GLabel 9050 1950 0    50   Input ~ 0
USART1_RX
Wire Notes Line
	6975 6525 6975 5000
Wire Notes Line
	6675 2075 475  2075
Wire Notes Line
	475  2075 475  2100
Text GLabel 9975 3050 0    50   Input ~ 0
USART2_TX
Text GLabel 9475 2925 0    50   Input ~ 0
USART2_RX
Text GLabel 9975 4125 0    50   Input ~ 0
USART3_TX
Text GLabel 9950 4550 0    50   Input ~ 0
USART3_RX
Text GLabel 6750 3575 1    50   Input ~ 0
SPI2_SCK
Text GLabel 7225 3575 1    50   Input ~ 0
SPI2_MISO
Text GLabel 7625 3575 1    50   Input ~ 0
SPI2_MOSI
Wire Wire Line
	9525 1575 9350 1575
Wire Wire Line
	9350 1575 9350 1500
Connection ~ 9525 1575
Wire Wire Line
	9750 2575 9850 2575
Wire Wire Line
	9850 2575 9850 2550
Wire Wire Line
	9850 2550 9950 2550
Connection ~ 9950 2550
$Comp
L power:GND #PWR0121
U 1 1 5FBE80B2
P 1625 1875
F 0 "#PWR0121" H 1625 1625 50  0001 C CNN
F 1 "GND" H 1630 1702 50  0000 C CNN
F 2 "" H 1625 1875 50  0001 C CNN
F 3 "" H 1625 1875 50  0001 C CNN
	1    1625 1875
	1    0    0    -1  
$EndComp
Wire Wire Line
	1375 1675 1375 1775
Wire Wire Line
	1375 1775 1175 1775
Wire Wire Line
	1725 1975 1725 1875
Wire Wire Line
	1725 1875 1625 1875
Wire Wire Line
	1800 1975 1725 1975
$Comp
L Device:R_Small R1
U 1 1 5FC60517
P 8925 850
F 0 "R1" H 8866 804 50  0000 R CNN
F 1 "4.7k" H 8866 895 50  0000 R CNN
F 2 "Resistor_SMD:R_0603_1608Metric" H 8925 850 50  0001 C CNN
F 3 "~" H 8925 850 50  0001 C CNN
	1    8925 850 
	-1   0    0    1   
$EndComp
$Comp
L Device:R_Small R2
U 1 1 5FC6075C
P 9525 875
F 0 "R2" H 9466 829 50  0000 R CNN
F 1 "4.7k" H 9466 920 50  0000 R CNN
F 2 "Resistor_SMD:R_0603_1608Metric" H 9525 875 50  0001 C CNN
F 3 "~" H 9525 875 50  0001 C CNN
	1    9525 875 
	-1   0    0    1   
$EndComp
$Comp
L power:+3.3V #PWR0122
U 1 1 5FC706D6
P 9250 725
F 0 "#PWR0122" H 9250 575 50  0001 C CNN
F 1 "+3.3V" H 9265 898 50  0000 C CNN
F 2 "" H 9250 725 50  0001 C CNN
F 3 "" H 9250 725 50  0001 C CNN
	1    9250 725 
	1    0    0    -1  
$EndComp
Wire Wire Line
	9525 775  9250 775 
Wire Wire Line
	9250 775  9250 725 
Wire Wire Line
	9250 775  9075 775 
Wire Wire Line
	9075 775  9075 750 
Wire Wire Line
	9075 750  8925 750 
Connection ~ 9250 775 
Wire Wire Line
	9525 975  9525 1250
Wire Wire Line
	9525 1250 10150 1250
Wire Wire Line
	9525 975  9450 975 
Wire Wire Line
	9450 975  9450 1000
Connection ~ 9525 975 
Wire Wire Line
	9350 950  9350 1150
Wire Wire Line
	9350 1150 10150 1150
Connection ~ 8925 950 
Wire Wire Line
	8925 950  9350 950 
Wire Wire Line
	8925 950  8650 950 
Text GLabel 8425 1550 0    50   Input ~ 0
I2C1_SCL
Text GLabel 8450 950  0    50   Input ~ 0
I2C1_SDA
$Comp
L Connector:Conn_01x04_Male J4
U 1 1 5FCD075B
P 8300 4325
F 0 "J4" H 8273 4205 50  0000 R CNN
F 1 "Conn_01x04_Male" H 8273 4296 50  0000 R CNN
F 2 "Connector_JST:JST_EH_B04B-EH-A_1x04_P2.50mm_Vertical" H 8300 4325 50  0001 C CNN
F 3 "~" H 8300 4325 50  0001 C CNN
	1    8300 4325
	-1   0    0    1   
$EndComp
Wire Notes Line
	-550 7400 -1525 7400
Text Notes -1325 4650 0    50   ~ 0
Hiarchies pinnen\n
Text HLabel -1075 4825 0    50   Output ~ 0
SPI1_SCK
Text HLabel -1075 4925 0    50   Output ~ 0
SPI1_MISO
Text HLabel -1075 5025 0    50   Output ~ 0
SPI1_MOSI
Text HLabel -1075 5125 0    50   Output ~ 0
SPI1_NSS
Text GLabel -975 4825 2    50   Input ~ 0
SPI1_SCK
Text GLabel -975 4925 2    50   Input ~ 0
SPI1_MISO
Text GLabel -975 5025 2    50   Input ~ 0
SPI1_MOSI
Text GLabel -975 5125 2    50   Input ~ 0
SPI1NSS
Wire Wire Line
	-975 4825 -1075 4825
Wire Wire Line
	-975 4925 -1075 4925
Wire Wire Line
	-975 5025 -1075 5025
Wire Wire Line
	-975 5125 -1075 5125
Text HLabel -1075 5225 0    50   Output ~ 0
STEP
Text GLabel -975 5225 2    50   Input ~ 0
TM3_CH3
Wire Wire Line
	-975 5225 -1075 5225
Text GLabel -975 5325 2    50   Input ~ 0
DIR
Text HLabel -1075 5325 0    50   Output ~ 0
DIR
Wire Wire Line
	-975 5325 -1075 5325
Text GLabel -975 5425 2    50   Input ~ 0
GPIO_PB2
Text HLabel -1075 5425 0    50   Output ~ 0
DRVoff
Wire Wire Line
	-975 5425 -1075 5425
Text GLabel -975 5525 2    50   Input ~ 0
NsleepMotor
Text HLabel -1075 5525 0    50   Output ~ 0
Nsleep
Wire Wire Line
	-1075 5525 -975 5525
Wire Wire Line
	7125 3250 6900 3250
Wire Wire Line
	7125 2675 7125 3250
Wire Wire Line
	7125 3250 7350 3250
Connection ~ 7125 3250
Wire Wire Line
	7350 3250 7800 3250
Connection ~ 7350 3250
Wire Wire Line
	7800 3650 7800 3575
Wire Wire Line
	7350 3650 7350 3575
Wire Wire Line
	6900 3450 6900 3575
Wire Wire Line
	8100 4125 8100 3950
Wire Wire Line
	8100 3950 8325 3950
Wire Wire Line
	8325 3950 8325 3575
Wire Wire Line
	8325 3575 7800 3575
Connection ~ 7800 3575
Wire Wire Line
	7800 3575 7800 3450
$Comp
L power:GND #PWR0141
U 1 1 5FB1F2E9
P 7350 3950
F 0 "#PWR0141" H 7350 3700 50  0001 C CNN
F 1 "GND" H 7355 3777 50  0000 C CNN
F 2 "" H 7350 3950 50  0001 C CNN
F 3 "" H 7350 3950 50  0001 C CNN
	1    7350 3950
	1    0    0    -1  
$EndComp
$Comp
L power:GND #PWR0142
U 1 1 5FB1F465
P 6900 3950
F 0 "#PWR0142" H 6900 3700 50  0001 C CNN
F 1 "GND" H 6905 3777 50  0000 C CNN
F 2 "" H 6900 3950 50  0001 C CNN
F 3 "" H 6900 3950 50  0001 C CNN
	1    6900 3950
	1    0    0    -1  
$EndComp
$Comp
L power:GND #PWR0143
U 1 1 5FB1F4C2
P 7800 3950
F 0 "#PWR0143" H 7800 3700 50  0001 C CNN
F 1 "GND" H 7805 3777 50  0000 C CNN
F 2 "" H 7800 3950 50  0001 C CNN
F 3 "" H 7800 3950 50  0001 C CNN
	1    7800 3950
	1    0    0    -1  
$EndComp
Wire Wire Line
	7800 3575 7625 3575
Wire Wire Line
	8100 4225 7575 4225
Wire Wire Line
	7575 4225 7575 3575
Wire Wire Line
	7575 3575 7350 3575
Connection ~ 7350 3575
Wire Wire Line
	7350 3575 7350 3450
Wire Wire Line
	7225 3575 7350 3575
Wire Wire Line
	8100 4325 7125 4325
Wire Wire Line
	7125 4325 7125 3575
Wire Wire Line
	7125 3575 6900 3575
Connection ~ 6900 3575
Wire Wire Line
	6900 3575 6900 3650
Wire Wire Line
	6900 3575 6750 3575
Wire Wire Line
	10900 4725 10900 4125
Wire Wire Line
	10900 4125 10775 4125
Wire Wire Line
	10900 4825 10475 4825
Wire Wire Line
	10475 4825 10475 4125
Wire Wire Line
	10475 4125 10225 4125
Connection ~ 10225 4125
Connection ~ 10775 4125
$Comp
L power:GND #PWR0145
U 1 1 5FBB3BBF
P 10175 4425
F 0 "#PWR0145" H 10175 4175 50  0001 C CNN
F 1 "GND" H 10180 4252 50  0000 C CNN
F 2 "" H 10175 4425 50  0001 C CNN
F 3 "" H 10175 4425 50  0001 C CNN
	1    10175 4425
	1    0    0    -1  
$EndComp
$Comp
L power:GND #PWR0146
U 1 1 5FBB3CA1
P 10650 4425
F 0 "#PWR0146" H 10650 4175 50  0001 C CNN
F 1 "GND" H 10655 4252 50  0000 C CNN
F 2 "" H 10650 4425 50  0001 C CNN
F 3 "" H 10650 4425 50  0001 C CNN
	1    10650 4425
	1    0    0    -1  
$EndComp
Wire Wire Line
	10550 4125 10550 4550
Wire Wire Line
	10550 4550 9950 4550
$Comp
L power:GND #PWR0147
U 1 1 5FBE09EF
P 10150 3225
F 0 "#PWR0147" H 10150 2975 50  0001 C CNN
F 1 "GND" H 10155 3052 50  0000 C CNN
F 2 "" H 10150 3225 50  0001 C CNN
F 3 "" H 10150 3225 50  0001 C CNN
	1    10150 3225
	1    0    0    -1  
$EndComp
$Comp
L power:GND #PWR0148
U 1 1 5FBE0ADB
P 10625 3350
F 0 "#PWR0148" H 10625 3100 50  0001 C CNN
F 1 "GND" H 10630 3177 50  0000 C CNN
F 2 "" H 10625 3350 50  0001 C CNN
F 3 "" H 10625 3350 50  0001 C CNN
	1    10625 3350
	1    0    0    -1  
$EndComp
$Comp
L power:GND #PWR0149
U 1 1 5FBF7B7B
P 9525 2250
F 0 "#PWR0149" H 9525 2000 50  0001 C CNN
F 1 "GND" H 9530 2077 50  0000 C CNN
F 2 "" H 9525 2250 50  0001 C CNN
F 3 "" H 9525 2250 50  0001 C CNN
	1    9525 2250
	1    0    0    -1  
$EndComp
Wire Wire Line
	9525 2250 9675 2250
$Comp
L power:GND #PWR0150
U 1 1 5FC0357A
P 10650 2375
F 0 "#PWR0150" H 10650 2125 50  0001 C CNN
F 1 "GND" H 10655 2202 50  0000 C CNN
F 2 "" H 10650 2375 50  0001 C CNN
F 3 "" H 10650 2375 50  0001 C CNN
	1    10650 2375
	1    0    0    -1  
$EndComp
Wire Wire Line
	10650 2375 10200 2375
$Comp
L Switch:SW_DIP_x01 SW1
U 1 1 5FC4BD6D
P 600 825
F 0 "SW1" V 554 955 50  0000 L CNN
F 1 "SW_DIP_x01" V 645 955 50  0000 L CNN
F 2 "Button_Switch_SMD:SW_SPST_TL3342" H 600 825 50  0001 C CNN
F 3 "" H 600 825 50  0001 C CNN
	1    600  825 
	0    1    1    0   
$EndComp
$Comp
L power:GND #PWR0151
U 1 1 5FC4C080
P 600 1125
F 0 "#PWR0151" H 600 875 50  0001 C CNN
F 1 "GND" H 605 952 50  0000 C CNN
F 2 "" H 600 1125 50  0001 C CNN
F 3 "" H 600 1125 50  0001 C CNN
	1    600  1125
	1    0    0    -1  
$EndComp
$Comp
L Device:C_Small C15
U 1 1 5FC4C1F9
P 1325 800
F 0 "C15" H 1417 846 50  0000 L CNN
F 1 "0.1uF" H 1417 755 50  0000 L CNN
F 2 "Capacitor_SMD:C_0603_1608Metric" H 1325 800 50  0001 C CNN
F 3 "~" H 1325 800 50  0001 C CNN
	1    1325 800 
	1    0    0    -1  
$EndComp
Wire Wire Line
	1325 700  1325 525 
Wire Wire Line
	1325 525  600  525 
$Comp
L power:GND #PWR0152
U 1 1 5FC5834B
P 1325 900
F 0 "#PWR0152" H 1325 650 50  0001 C CNN
F 1 "GND" H 1330 727 50  0000 C CNN
F 2 "" H 1325 900 50  0001 C CNN
F 3 "" H 1325 900 50  0001 C CNN
	1    1325 900 
	1    0    0    -1  
$EndComp
Wire Wire Line
	1325 525  1500 525 
Connection ~ 1325 525 
Text GLabel 1500 525  2    50   Input ~ 0
NRST
Text GLabel 1075 4925 0    50   BiDi ~ 0
ADC_IN
Text GLabel 1075 5025 0    50   BiDi ~ 0
TIM3_CH2
Text HLabel -1075 5650 0    50   Output ~ 0
DAC1_OUT2
Text GLabel -950 5650 2    50   Input ~ 0
DAC1_OUT2
Text GLabel 7800 4425 0    50   BiDi ~ 0
SPI2_Nss
$Comp
L power:GND #PWR0158
U 1 1 5FD90408
P 7075 1700
F 0 "#PWR0158" H 7075 1450 50  0001 C CNN
F 1 "GND" H 7080 1527 50  0000 C CNN
F 2 "" H 7075 1700 50  0001 C CNN
F 3 "" H 7075 1700 50  0001 C CNN
	1    7075 1700
	1    0    0    -1  
$EndComp
$Comp
L power:GND #PWR0159
U 1 1 5FD9F943
P 6150 1700
F 0 "#PWR0159" H 6150 1450 50  0001 C CNN
F 1 "GND" H 6155 1527 50  0000 C CNN
F 2 "" H 6150 1700 50  0001 C CNN
F 3 "" H 6150 1700 50  0001 C CNN
	1    6150 1700
	1    0    0    -1  
$EndComp
$Comp
L power:GND #PWR0160
U 1 1 5FDAEE2F
P 5700 1700
F 0 "#PWR0160" H 5700 1450 50  0001 C CNN
F 1 "GND" H 5705 1527 50  0000 C CNN
F 2 "" H 5700 1700 50  0001 C CNN
F 3 "" H 5700 1700 50  0001 C CNN
	1    5700 1700
	1    0    0    -1  
$EndComp
$Comp
L power:GND #PWR0161
U 1 1 5FDBE312
P 5250 1700
F 0 "#PWR0161" H 5250 1450 50  0001 C CNN
F 1 "GND" H 5255 1527 50  0000 C CNN
F 2 "" H 5250 1700 50  0001 C CNN
F 3 "" H 5250 1700 50  0001 C CNN
	1    5250 1700
	1    0    0    -1  
$EndComp
$Comp
L Connector:Conn_01x05_Male J12
U 1 1 5FDCDBDC
P 7750 1375
F 0 "J12" H 7723 1305 50  0000 R CNN
F 1 "Conn_01x05_Male" H 7723 1396 50  0000 R CNN
F 2 "Connector_JST:JST_EH_B05B-EH-A_1x05_P2.50mm_Vertical" H 7750 1375 50  0001 C CNN
F 3 "~" H 7750 1375 50  0001 C CNN
	1    7750 1375
	-1   0    0    1   
$EndComp
$Comp
L power:GND #PWR0162
U 1 1 5FDDD2ED
P 6600 1700
F 0 "#PWR0162" H 6600 1450 50  0001 C CNN
F 1 "GND" H 6605 1527 50  0000 C CNN
F 2 "" H 6600 1700 50  0001 C CNN
F 3 "" H 6600 1700 50  0001 C CNN
	1    6600 1700
	1    0    0    -1  
$EndComp
Wire Wire Line
	7325 1575 7325 1400
Wire Wire Line
	7325 1400 7075 1400
Wire Wire Line
	7550 1475 7400 1475
Wire Wire Line
	7400 1475 7400 1375
Wire Wire Line
	6650 1375 6650 1400
Wire Wire Line
	6650 1400 6600 1400
Wire Wire Line
	6650 1375 7400 1375
Wire Wire Line
	7550 1375 7450 1375
Wire Wire Line
	7550 1175 5250 1175
Wire Wire Line
	5250 1175 5250 1400
Wire Wire Line
	1075 6400 1500 6400
Wire Wire Line
	1500 6400 1500 6425
Wire Wire Line
	1075 6800 1500 6800
Wire Wire Line
	1500 6800 1500 6825
Wire Wire Line
	1075 6900 1500 6900
Wire Wire Line
	1500 6900 1500 6925
Wire Wire Line
	4150 2575 4550 2575
Wire Wire Line
	4550 2550 4550 2575
Connection ~ 4550 2575
Wire Wire Line
	4550 2575 4975 2575
$Comp
L power:GND #PWR02
U 1 1 5FECB734
P 7475 1625
F 0 "#PWR02" H 7475 1375 50  0001 C CNN
F 1 "GND" H 7480 1452 50  0000 C CNN
F 2 "" H 7475 1625 50  0001 C CNN
F 3 "" H 7475 1625 50  0001 C CNN
	1    7475 1625
	1    0    0    -1  
$EndComp
$Comp
L power:+3.3V #PWR01
U 1 1 5FECBBDB
P 4925 1175
F 0 "#PWR01" H 4925 1025 50  0001 C CNN
F 1 "+3.3V" H 4940 1348 50  0000 C CNN
F 2 "" H 4925 1175 50  0001 C CNN
F 3 "" H 4925 1175 50  0001 C CNN
	1    4925 1175
	1    0    0    -1  
$EndComp
Connection ~ 5250 1175
Text GLabel 5700 1275 0    50   BiDi ~ 0
TM3_CH4
Wire Wire Line
	5700 1275 5700 1400
Wire Wire Line
	5700 1275 7550 1275
Text GLabel 6150 1350 0    50   BiDi ~ 0
TIM3_CH2
Wire Wire Line
	7450 1325 6150 1325
Wire Wire Line
	7450 1325 7450 1375
Wire Wire Line
	6150 1325 6150 1400
Wire Wire Line
	1500 4325 1075 4325
$Comp
L Connector:Conn_01x05_Male J13
U 1 1 5FF2D006
P 7775 750
F 0 "J13" H 7748 680 50  0000 R CNN
F 1 "Conn_01x05_Male" H 7748 771 50  0000 R CNN
F 2 "Connector_JST:JST_EH_B05B-EH-A_1x05_P2.50mm_Vertical" H 7775 750 50  0001 C CNN
F 3 "~" H 7775 750 50  0001 C CNN
	1    7775 750 
	-1   0    0    1   
$EndComp
$Comp
L power:GND #PWR08
U 1 1 5FF2D645
P 7075 950
F 0 "#PWR08" H 7075 700 50  0001 C CNN
F 1 "GND" H 7080 777 50  0000 C CNN
F 2 "" H 7075 950 50  0001 C CNN
F 3 "" H 7075 950 50  0001 C CNN
	1    7075 950 
	1    0    0    -1  
$EndComp
$Comp
L power:GND #PWR07
U 1 1 5FF3FB25
P 6625 950
F 0 "#PWR07" H 6625 700 50  0001 C CNN
F 1 "GND" H 6630 777 50  0000 C CNN
F 2 "" H 6625 950 50  0001 C CNN
F 3 "" H 6625 950 50  0001 C CNN
	1    6625 950 
	1    0    0    -1  
$EndComp
$Comp
L power:GND #PWR06
U 1 1 5FF52094
P 6175 950
F 0 "#PWR06" H 6175 700 50  0001 C CNN
F 1 "GND" H 6175 775 50  0000 C CNN
F 2 "" H 6175 950 50  0001 C CNN
F 3 "" H 6175 950 50  0001 C CNN
	1    6175 950 
	1    0    0    -1  
$EndComp
$Comp
L power:GND #PWR05
U 1 1 5FFAD993
P 5725 975
F 0 "#PWR05" H 5725 725 50  0001 C CNN
F 1 "GND" H 5725 825 50  0000 C CNN
F 2 "" H 5725 975 50  0001 C CNN
F 3 "" H 5725 975 50  0001 C CNN
	1    5725 975 
	1    0    0    -1  
$EndComp
$Comp
L power:GND #PWR04
U 1 1 5FFC0012
P 5275 950
F 0 "#PWR04" H 5275 700 50  0001 C CNN
F 1 "GND" H 5280 777 50  0000 C CNN
F 2 "" H 5275 950 50  0001 C CNN
F 3 "" H 5275 950 50  0001 C CNN
	1    5275 950 
	1    0    0    -1  
$EndComp
Wire Wire Line
	5250 1175 4925 1175
Wire Wire Line
	7575 950  7425 950 
Wire Wire Line
	7225 950  7225 650 
Wire Wire Line
	7225 650  7075 650 
Wire Wire Line
	7250 850  7250 625 
Wire Wire Line
	7250 625  6625 625 
Wire Wire Line
	6625 625  6625 650 
Wire Wire Line
	7250 850  7575 850 
Wire Wire Line
	7575 750  7275 750 
Wire Wire Line
	7275 750  7275 600 
Wire Wire Line
	7275 600  6175 600 
Wire Wire Line
	6175 600  6175 650 
Wire Wire Line
	7575 650  7300 650 
Wire Wire Line
	7300 650  7300 575 
Wire Wire Line
	7300 575  5725 575 
Wire Wire Line
	5725 575  5725 650 
Wire Wire Line
	5275 650  5275 550 
Wire Wire Line
	5275 550  7575 550 
$Comp
L power:GND #PWR09
U 1 1 60049E69
P 7425 950
F 0 "#PWR09" H 7425 700 50  0001 C CNN
F 1 "GND" H 7430 777 50  0000 C CNN
F 2 "" H 7425 950 50  0001 C CNN
F 3 "" H 7425 950 50  0001 C CNN
	1    7425 950 
	1    0    0    -1  
$EndComp
Connection ~ 7425 950 
Wire Wire Line
	7425 950  7225 950 
$Comp
L power:+3.3V #PWR03
U 1 1 60049F86
P 5025 675
F 0 "#PWR03" H 5025 525 50  0001 C CNN
F 1 "+3.3V" H 5040 848 50  0000 C CNN
F 2 "" H 5025 675 50  0001 C CNN
F 3 "" H 5025 675 50  0001 C CNN
	1    5025 675 
	1    0    0    -1  
$EndComp
Wire Wire Line
	5275 550  5125 550 
Wire Wire Line
	5125 550  5125 675 
Wire Wire Line
	5125 675  5025 675 
Connection ~ 5275 550 
Text GLabel 6450 625  3    50   BiDi ~ 0
GPIO_PC13
Text GLabel 6000 625  3    50   BiDi ~ 0
GPIO_PC14
Text GLabel 5550 625  3    50   BiDi ~ 0
GPIO_PC15
Wire Wire Line
	6625 625  6450 625 
Connection ~ 6625 625 
Wire Wire Line
	6175 600  6000 600 
Wire Wire Line
	6000 600  6000 625 
Connection ~ 6175 600 
Wire Wire Line
	5725 575  5550 575 
Wire Wire Line
	5550 575  5550 625 
Connection ~ 5725 575 
Wire Wire Line
	5725 950  5725 975 
Wire Wire Line
	7325 1575 7475 1575
Wire Wire Line
	7475 1575 7475 1625
Wire Wire Line
	7550 1575 7475 1575
Connection ~ 7475 1575
$Comp
L Connector:Conn_01x04_Male J14
U 1 1 60163A95
P 4525 1400
F 0 "J14" H 4498 1280 50  0000 R CNN
F 1 "Conn_01x04_Male" H 4498 1371 50  0000 R CNN
F 2 "Connector_JST:JST_EH_B04B-EH-A_1x04_P2.50mm_Vertical" H 4525 1400 50  0001 C CNN
F 3 "~" H 4525 1400 50  0001 C CNN
	1    4525 1400
	-1   0    0    1   
$EndComp
$Comp
L power:GND #PWR015
U 1 1 60163DC6
P 4125 1750
F 0 "#PWR015" H 4125 1500 50  0001 C CNN
F 1 "GND" H 4130 1577 50  0000 C CNN
F 2 "" H 4125 1750 50  0001 C CNN
F 3 "" H 4125 1750 50  0001 C CNN
	1    4125 1750
	1    0    0    -1  
$EndComp
$Comp
L power:GND #PWR013
U 1 1 6017AB16
P 3650 1750
F 0 "#PWR013" H 3650 1500 50  0001 C CNN
F 1 "GND" H 3655 1577 50  0000 C CNN
F 2 "" H 3650 1750 50  0001 C CNN
F 3 "" H 3650 1750 50  0001 C CNN
	1    3650 1750
	1    0    0    -1  
$EndComp
$Comp
L power:GND #PWR012
U 1 1 60191867
P 3625 1025
F 0 "#PWR012" H 3625 775 50  0001 C CNN
F 1 "GND" H 3630 852 50  0000 C CNN
F 2 "" H 3625 1025 50  0001 C CNN
F 3 "" H 3625 1025 50  0001 C CNN
	1    3625 1025
	1    0    0    -1  
$EndComp
$Comp
L power:GND #PWR014
U 1 1 601A85B5
P 4100 1025
F 0 "#PWR014" H 4100 775 50  0001 C CNN
F 1 "GND" H 4105 852 50  0000 C CNN
F 2 "" H 4100 1025 50  0001 C CNN
F 3 "" H 4100 1025 50  0001 C CNN
	1    4100 1025
	1    0    0    -1  
$EndComp
Wire Wire Line
	4325 1200 4325 1000
Wire Wire Line
	4325 1000 4575 1000
Wire Wire Line
	4575 1000 4575 725 
Wire Wire Line
	4575 725  4375 725 
Wire Wire Line
	4325 1300 3850 1300
Wire Wire Line
	3850 1300 3850 725 
Wire Wire Line
	3850 725  3700 725 
Wire Wire Line
	4325 1450 4325 1500
Wire Wire Line
	4325 1400 3700 1400
Wire Wire Line
	3650 1400 3650 1450
Text GLabel 3625 625  0    50   BiDi ~ 0
GPIO_PB8
Text GLabel 4250 625  0    50   BiDi ~ 0
GPIO_PB9
Text GLabel 3925 1475 3    50   BiDi ~ 0
GPIO_PB4
Text GLabel 3600 1375 0    50   BiDi ~ 0
GPIO_PB5
Wire Wire Line
	3925 1450 3925 1475
Wire Wire Line
	3700 1400 3700 1375
Wire Wire Line
	3700 1375 3600 1375
Connection ~ 3700 1400
Wire Wire Line
	3700 1400 3650 1400
Wire Wire Line
	3625 625  3700 625 
Wire Wire Line
	3700 625  3700 725 
Connection ~ 3700 725 
Wire Wire Line
	3700 725  3625 725 
Wire Wire Line
	4250 625  4375 625 
Wire Wire Line
	4375 625  4375 725 
Connection ~ 4375 725 
Wire Wire Line
	4375 725  4100 725 
$Comp
L Connector:Conn_01x02_Male J10
U 1 1 6028B922
P 2900 800
F 0 "J10" H 2873 680 50  0000 R CNN
F 1 "Conn_01x02_Male" H 2873 771 50  0000 R CNN
F 2 "Connector_JST:JST_EH_B02B-EH-A_1x02_P2.50mm_Vertical" H 2900 800 50  0001 C CNN
F 3 "~" H 2900 800 50  0001 C CNN
	1    2900 800 
	-1   0    0    1   
$EndComp
$Comp
L power:GND #PWR010
U 1 1 6028BCCF
P 2675 1350
F 0 "#PWR010" H 2675 1100 50  0001 C CNN
F 1 "GND" H 2680 1177 50  0000 C CNN
F 2 "" H 2675 1350 50  0001 C CNN
F 3 "" H 2675 1350 50  0001 C CNN
	1    2675 1350
	1    0    0    -1  
$EndComp
$Comp
L power:GND #PWR011
U 1 1 603B5723
P 2925 1350
F 0 "#PWR011" H 2925 1100 50  0001 C CNN
F 1 "GND" H 2930 1177 50  0000 C CNN
F 2 "" H 2925 1350 50  0001 C CNN
F 3 "" H 2925 1350 50  0001 C CNN
	1    2925 1350
	1    0    0    -1  
$EndComp
Wire Wire Line
	2700 800  2700 925 
Wire Wire Line
	2700 925  2925 925 
Wire Wire Line
	2925 925  2925 1050
Wire Wire Line
	2700 700  2650 700 
Wire Wire Line
	2650 700  2650 1050
Wire Wire Line
	2650 1050 2675 1050
Text GLabel 2925 925  2    50   BiDi ~ 0
GPIO_PA0
Text GLabel 2650 700  0    50   BiDi ~ 0
GPIO_PA8
Wire Wire Line
	-950 5650 -1075 5650
Wire Notes Line
	-550 4525 -550 4700
Wire Notes Line
	-450 4525 -450 5800
Wire Notes Line
	-450 5800 -1625 5800
Wire Notes Line
	-1625 5800 -1625 4525
Wire Notes Line
	-1625 4525 -450 4525
Wire Notes Line
	-550 4700 -1525 4700
Wire Notes Line
	-1525 4700 -1525 4525
Wire Notes Line
	1850 475  1850 600 
Wire Notes Line
	1850 600  1600 600 
Wire Notes Line
	1600 600  1600 1325
Wire Notes Line
	475  475  475  1325
Wire Notes Line
	1750 1325 1750 1225
Wire Notes Line
	1750 1225 2025 1225
Wire Notes Line
	2025 1225 2025 1400
Wire Notes Line
	2025 1400 2550 1400
Wire Notes Line
	475  1325 1750 1325
Wire Notes Line
	2175 475  2175 875 
Wire Notes Line
	2175 875  2550 875 
Wire Notes Line
	2550 875  2550 2075
Wire Notes Line
	3600 800  3600 725 
Wire Notes Line
	3600 725  3075 725 
Wire Notes Line
	3075 725  3075 475 
Wire Notes Line
	475  475  3075 475 
Wire Notes Line
	3600 800  3375 800 
Wire Notes Line
	3375 800  3375 1300
Wire Notes Line
	3375 1300 3025 1300
Wire Notes Line
	3025 1300 3025 1575
Wire Notes Line
	3025 1575 2550 1575
Wire Notes Line
	4800 2075 4800 475 
Wire Notes Line
	4800 950  5075 950 
Wire Notes Line
	5075 950  5075 1150
Wire Notes Line
	5075 1150 7525 1150
Wire Notes Line
	8475 825  8475 725 
Wire Notes Line
	8475 725  7975 725 
Wire Notes Line
	7975 725  7975 475 
Wire Notes Line
	7975 1350 8450 1350
Wire Notes Line
	8450 1350 8450 1450
Wire Notes Line
	8450 1450 7800 1450
Wire Notes Line
	7800 1450 7800 1850
Wire Notes Line
	7800 1850 7175 1850
Wire Notes Line
	7175 1850 7175 1925
Wire Notes Line
	7175 1925 6675 1925
Wire Notes Line
	6675 1925 6675 5000
Wire Notes Line
	7800 1650 9200 1650
Wire Notes Line
	9200 1650 9200 1275
Wire Notes Line
	9200 1275 11225 1275
Wire Notes Line
	4800 475  11225 475 
Wire Notes Line
	8550 1650 8550 2050
Wire Notes Line
	8550 2050 9050 2050
Wire Notes Line
	9050 2050 9050 2300
Wire Notes Line
	9050 2300 9400 2300
Wire Notes Line
	9400 2300 9400 2475
Wire Notes Line
	9400 2475 9600 2475
Wire Notes Line
	9600 2300 10175 2300
Wire Notes Line
	10175 2300 10175 2425
Wire Notes Line
	10175 2425 10575 2425
Wire Notes Line
	10575 2425 10575 2575
Wire Notes Line
	10575 2575 11225 2575
Wire Notes Line
	11225 475  11225 2575
Wire Notes Line
	11200 3575 10525 3575
Wire Notes Line
	10525 3575 10525 3450
Wire Notes Line
	8975 3450 8975 2600
Wire Notes Line
	8975 2600 9600 2600
Wire Notes Line
	9600 2300 9600 2600
Wire Notes Line
	8175 3450 8175 3175
Wire Notes Line
	8175 3175 7725 3175
Wire Notes Line
	7725 3175 7725 2625
Wire Notes Line
	7725 2625 7250 2625
Wire Notes Line
	7250 2625 7250 2400
Wire Notes Line
	7250 2400 6675 2400
Wire Notes Line
	8175 3450 10525 3450
Wire Notes Line
	9125 3450 9125 5000
Wire Notes Line
	6675 5000 11225 5000
Text Notes 2275 2325 0    50   ~ 0
STM32L4P5CGT6 power\n
Wire Notes Line
	6675 4250 6025 4250
Wire Notes Line
	6025 4250 6025 4275
Wire Notes Line
	6025 4275 5700 4275
Wire Notes Line
	5700 4275 5700 3850
Wire Notes Line
	5700 3850 475  3850
Wire Notes Line
	475  3450 475  7775
Text Notes 1275 4075 0    50   ~ 0
STM32L4P5CGT6 I/O\n\n
Text Notes 9500 3700 0    50   ~ 0
UART3 conn\n
Text Notes 8550 3700 0    50   ~ 0
SPI2 conn\n
Text Notes 9150 3325 0    50   ~ 0
UART2 conn\n
Text Notes 10425 1500 0    50   ~ 0
UART1 conn\n
Text Notes 10400 725  0    50   ~ 0
I2C1 conn\n
Wire Notes Line
	7525 1150 7525 1100
Wire Notes Line
	7525 1100 7975 1100
Wire Notes Line
	7975 825  7975 1350
Wire Notes Line
	8475 825  7975 825 
Text Notes 4875 900  0    50   ~ 0
GPIO C\nconn
Text Notes 5750 2025 0    50   ~ 0
TIM3 CH4/2/1 conn
Text Notes 2950 1925 0    50   ~ 0
GPIO B\nconn
Text Notes 525  1600 0    50   ~ 0
SWD conn
Text Notes 1100 1275 0    50   ~ 0
Nrst 
Text Notes 2075 1275 0    50   ~ 0
Power conn
Wire Wire Line
	1500 4825 1075 4825
$Comp
L Connector:Conn_01x02_Male J11
U 1 1 6078AF9A
P 8625 2475
F 0 "J11" H 8598 2355 50  0000 R CNN
F 1 "Conn_01x02_Male" H 8598 2446 50  0000 R CNN
F 2 "Connector_JST:JST_EH_B02B-EH-A_1x02_P2.50mm_Vertical" H 8625 2475 50  0001 C CNN
F 3 "~" H 8625 2475 50  0001 C CNN
	1    8625 2475
	-1   0    0    1   
$EndComp
$Comp
L power:GND #PWR0125
U 1 1 6078B3A8
P 8075 2800
F 0 "#PWR0125" H 8075 2550 50  0001 C CNN
F 1 "GND" H 8080 2627 50  0000 C CNN
F 2 "" H 8075 2800 50  0001 C CNN
F 3 "" H 8075 2800 50  0001 C CNN
	1    8075 2800
	1    0    0    -1  
$EndComp
$Comp
L power:GND #PWR0126
U 1 1 607A51AE
P 8300 2800
F 0 "#PWR0126" H 8300 2550 50  0001 C CNN
F 1 "GND" H 8305 2627 50  0000 C CNN
F 2 "" H 8300 2800 50  0001 C CNN
F 3 "" H 8300 2800 50  0001 C CNN
	1    8300 2800
	1    0    0    -1  
$EndComp
Wire Wire Line
	8300 2800 8300 2475
Wire Wire Line
	8300 2475 8425 2475
Wire Wire Line
	8300 2475 8075 2475
Wire Wire Line
	8075 2475 8075 2500
Connection ~ 8300 2475
$Comp
L power:GND #PWR0153
U 1 1 607D97D3
P 7925 2550
F 0 "#PWR0153" H 7925 2300 50  0001 C CNN
F 1 "GND" H 7930 2377 50  0000 C CNN
F 2 "" H 7925 2550 50  0001 C CNN
F 3 "" H 7925 2550 50  0001 C CNN
	1    7925 2550
	1    0    0    -1  
$EndComp
Wire Wire Line
	8425 2375 8425 2200
Wire Wire Line
	7925 2500 7925 2550
$Comp
L Diode:1.5KExxA D23
U 1 1 60829D08
P 7925 2350
F 0 "D23" V 7879 2429 50  0000 L CNN
F 1 "ESD5Z5.0T1G" V 7970 2429 50  0000 L CNN
F 2 "Diode_SMD:D_SOD-523" H 7925 2150 50  0001 C CNN
F 3 "https://www.vishay.com/docs/88301/15ke.pdf" H 7875 2350 50  0001 C CNN
	1    7925 2350
	0    1    1    0   
$EndComp
Wire Wire Line
	7775 2200 7925 2200
Connection ~ 7925 2200
Wire Wire Line
	7925 2200 8425 2200
$Comp
L Diode:1.5KExxA D24
U 1 1 6082A0E5
P 8075 2650
F 0 "D24" V 8029 2729 50  0000 L CNN
F 1 "ESD5Z5.0T1G" V 8120 2729 50  0000 L CNN
F 2 "Diode_SMD:D_SOD-523" H 8075 2450 50  0001 C CNN
F 3 "https://www.vishay.com/docs/88301/15ke.pdf" H 8025 2650 50  0001 C CNN
	1    8075 2650
	0    1    1    0   
$EndComp
$Comp
L Diode:1.5KExxA D28
U 1 1 6082A1F1
P 10150 3075
F 0 "D28" V 10104 3154 50  0000 L CNN
F 1 "ESD5Z5.0T1G" V 10195 3154 50  0000 L CNN
F 2 "Diode_SMD:D_SOD-523" H 10150 2875 50  0001 C CNN
F 3 "https://www.vishay.com/docs/88301/15ke.pdf" H 10100 3075 50  0001 C CNN
	1    10150 3075
	0    1    1    0   
$EndComp
Wire Wire Line
	9950 2925 10150 2925
Connection ~ 10150 2925
Wire Wire Line
	10150 2925 10750 2925
Wire Wire Line
	10500 3050 10625 3050
$Comp
L Diode:1.5KExxA D31
U 1 1 6082A921
P 10625 3200
F 0 "D31" V 10579 3279 50  0000 L CNN
F 1 "ESD5Z5.0T1G" V 10670 3279 50  0000 L CNN
F 2 "Diode_SMD:D_SOD-523" H 10625 3000 50  0001 C CNN
F 3 "https://www.vishay.com/docs/88301/15ke.pdf" H 10575 3200 50  0001 C CNN
	1    10625 3200
	0    1    1    0   
$EndComp
Connection ~ 10625 3050
Wire Wire Line
	10625 3050 10750 3050
$Comp
L Diode:1.5KExxA D27
U 1 1 6082B957
P 9675 2100
F 0 "D27" V 9629 2179 50  0000 L CNN
F 1 "ESD5Z5.0T1G" V 9720 2179 50  0000 L CNN
F 2 "Diode_SMD:D_SOD-523" H 9675 1900 50  0001 C CNN
F 3 "https://www.vishay.com/docs/88301/15ke.pdf" H 9625 2100 50  0001 C CNN
	1    9675 2100
	0    1    1    0   
$EndComp
$Comp
L Diode:1.5KExxA D30
U 1 1 6082BA6D
P 10200 2225
F 0 "D30" V 10154 2304 50  0000 L CNN
F 1 "ESD5Z5.0T1G" V 10245 2304 50  0000 L CNN
F 2 "Diode_SMD:D_SOD-523" H 10200 2025 50  0001 C CNN
F 3 "https://www.vishay.com/docs/88301/15ke.pdf" H 10150 2225 50  0001 C CNN
	1    10200 2225
	0    1    1    0   
$EndComp
Wire Wire Line
	10075 2075 10200 2075
Connection ~ 10200 2075
Wire Wire Line
	10200 2075 10325 2075
Wire Wire Line
	9525 1950 9675 1950
Connection ~ 9675 1950
Wire Wire Line
	9675 1950 10325 1950
Wire Wire Line
	9025 1000 9100 1000
$Comp
L Diode:1.5KExxA D26
U 1 1 6082C132
P 9100 1150
F 0 "D26" V 9054 1229 50  0000 L CNN
F 1 "ESD5Z5.0T1G" V 9145 1229 50  0000 L CNN
F 2 "Diode_SMD:D_SOD-523" H 9100 950 50  0001 C CNN
F 3 "https://www.vishay.com/docs/88301/15ke.pdf" H 9050 1150 50  0001 C CNN
	1    9100 1150
	0    1    1    0   
$EndComp
Connection ~ 9100 1000
Wire Wire Line
	9100 1000 9450 1000
$Comp
L Diode:1.5KExxA D25
U 1 1 6082C1FC
P 8650 1150
F 0 "D25" V 8604 1229 50  0000 L CNN
F 1 "ESD5Z5.0T1G" V 8695 1229 50  0000 L CNN
F 2 "Diode_SMD:D_SOD-523" H 8650 950 50  0001 C CNN
F 3 "https://www.vishay.com/docs/88301/15ke.pdf" H 8600 1150 50  0001 C CNN
	1    8650 1150
	0    1    1    0   
$EndComp
$Comp
L Diode:1.5KExxA D20
U 1 1 6082C59D
P 7075 1550
F 0 "D20" V 7029 1629 50  0000 L CNN
F 1 "ESD5Z5.0T1G" V 7120 1629 50  0000 L CNN
F 2 "Diode_SMD:D_SOD-523" H 7075 1350 50  0001 C CNN
F 3 "https://www.vishay.com/docs/88301/15ke.pdf" H 7025 1550 50  0001 C CNN
	1    7075 1550
	0    1    1    0   
$EndComp
$Comp
L Diode:1.5KExxA D16
U 1 1 6082C724
P 6600 1550
F 0 "D16" V 6554 1629 50  0000 L CNN
F 1 "ESD5Z5.0T1G" V 6645 1629 50  0000 L CNN
F 2 "Diode_SMD:D_SOD-523" H 6600 1350 50  0001 C CNN
F 3 "https://www.vishay.com/docs/88301/15ke.pdf" H 6550 1550 50  0001 C CNN
	1    6600 1550
	0    1    1    0   
$EndComp
$Comp
L Diode:1.5KExxA D14
U 1 1 6082C7D0
P 6150 1550
F 0 "D14" V 6104 1629 50  0000 L CNN
F 1 "ESD5Z5.0T1G" V 6195 1629 50  0000 L CNN
F 2 "Diode_SMD:D_SOD-523" H 6150 1350 50  0001 C CNN
F 3 "https://www.vishay.com/docs/88301/15ke.pdf" H 6100 1550 50  0001 C CNN
	1    6150 1550
	0    1    1    0   
$EndComp
$Comp
L Diode:1.5KExxA D12
U 1 1 6082C882
P 5700 1550
F 0 "D12" V 5654 1629 50  0000 L CNN
F 1 "ESD5Z5.0T1G" V 5745 1629 50  0000 L CNN
F 2 "Diode_SMD:D_SOD-523" H 5700 1350 50  0001 C CNN
F 3 "https://www.vishay.com/docs/88301/15ke.pdf" H 5650 1550 50  0001 C CNN
	1    5700 1550
	0    1    1    0   
$EndComp
$Comp
L Diode:1.5KExxA D10
U 1 1 6082C9AC
P 5250 1550
F 0 "D10" V 5204 1629 50  0000 L CNN
F 1 "ESD5Z5.0T1G" V 5295 1629 50  0000 L CNN
F 2 "Diode_SMD:D_SOD-523" H 5250 1350 50  0001 C CNN
F 3 "https://www.vishay.com/docs/88301/15ke.pdf" H 5200 1550 50  0001 C CNN
	1    5250 1550
	0    1    1    0   
$EndComp
$Comp
L Diode:1.5KExxA D11
U 1 1 6082CA5A
P 5275 800
F 0 "D11" V 5229 879 50  0000 L CNN
F 1 "ESD5Z5.0T1G" V 5320 879 50  0000 L CNN
F 2 "Diode_SMD:D_SOD-523" H 5275 600 50  0001 C CNN
F 3 "https://www.vishay.com/docs/88301/15ke.pdf" H 5225 800 50  0001 C CNN
	1    5275 800 
	0    1    1    0   
$EndComp
$Comp
L Diode:1.5KExxA D13
U 1 1 6082CC0C
P 5725 800
F 0 "D13" V 5679 879 50  0000 L CNN
F 1 "ESD5Z5.0T1G" V 5770 879 50  0000 L CNN
F 2 "Diode_SMD:D_SOD-523" H 5725 600 50  0001 C CNN
F 3 "https://www.vishay.com/docs/88301/15ke.pdf" H 5675 800 50  0001 C CNN
	1    5725 800 
	0    1    1    0   
$EndComp
$Comp
L Diode:1.5KExxA D15
U 1 1 6082CCBC
P 6175 800
F 0 "D15" V 6129 879 50  0000 L CNN
F 1 "ESD5Z5.0T1G" V 6220 879 50  0000 L CNN
F 2 "Diode_SMD:D_SOD-523" H 6175 600 50  0001 C CNN
F 3 "https://www.vishay.com/docs/88301/15ke.pdf" H 6125 800 50  0001 C CNN
	1    6175 800 
	0    1    1    0   
$EndComp
$Comp
L Diode:1.5KExxA D17
U 1 1 6082D48A
P 6625 800
F 0 "D17" V 6579 879 50  0000 L CNN
F 1 "ESD5Z5.0T1G" V 6670 879 50  0000 L CNN
F 2 "Diode_SMD:D_SOD-523" H 6625 600 50  0001 C CNN
F 3 "https://www.vishay.com/docs/88301/15ke.pdf" H 6575 800 50  0001 C CNN
	1    6625 800 
	0    1    1    0   
$EndComp
$Comp
L Diode:1.5KExxA D19
U 1 1 6082D54A
P 7075 800
F 0 "D19" V 7029 879 50  0000 L CNN
F 1 "ESD5Z5.0T1G" V 7120 879 50  0000 L CNN
F 2 "Diode_SMD:D_SOD-523" H 7075 600 50  0001 C CNN
F 3 "https://www.vishay.com/docs/88301/15ke.pdf" H 7025 800 50  0001 C CNN
	1    7075 800 
	0    1    1    0   
$EndComp
Wire Wire Line
	3925 1450 4125 1450
$Comp
L Diode:1.5KExxA D9
U 1 1 6082DB50
P 4100 875
F 0 "D9" V 4054 954 50  0000 L CNN
F 1 "ESD5Z5.0T1G" V 4145 954 50  0000 L CNN
F 2 "Diode_SMD:D_SOD-523" H 4100 675 50  0001 C CNN
F 3 "https://www.vishay.com/docs/88301/15ke.pdf" H 4050 875 50  0001 C CNN
	1    4100 875 
	0    1    1    0   
$EndComp
$Comp
L Diode:1.5KExxA D7
U 1 1 6082DC28
P 3625 875
F 0 "D7" V 3579 954 50  0000 L CNN
F 1 "ESD5Z5.0T1G" V 3670 954 50  0000 L CNN
F 2 "Diode_SMD:D_SOD-523" H 3625 675 50  0001 C CNN
F 3 "https://www.vishay.com/docs/88301/15ke.pdf" H 3575 875 50  0001 C CNN
	1    3625 875 
	0    1    1    0   
$EndComp
$Comp
L Diode:1.5KExxA D8
U 1 1 6082DCD6
P 3650 1600
F 0 "D8" V 3604 1679 50  0000 L CNN
F 1 "ESD5Z5.0T1G" V 3695 1679 50  0000 L CNN
F 2 "Diode_SMD:D_SOD-523" H 3650 1400 50  0001 C CNN
F 3 "https://www.vishay.com/docs/88301/15ke.pdf" H 3600 1600 50  0001 C CNN
	1    3650 1600
	0    1    1    0   
$EndComp
$Comp
L Diode:1.5KExxA D4
U 1 1 6082DDCA
P 2925 1200
F 0 "D4" V 2879 1279 50  0000 L CNN
F 1 "ESD5Z5.0T1G" V 2970 1279 50  0000 L CNN
F 2 "Diode_SMD:D_SOD-523" H 2925 1000 50  0001 C CNN
F 3 "https://www.vishay.com/docs/88301/15ke.pdf" H 2875 1200 50  0001 C CNN
	1    2925 1200
	0    1    1    0   
$EndComp
$Comp
L Diode:1.5KExxA D3
U 1 1 6082DE90
P 2675 1200
F 0 "D3" V 2629 1279 50  0000 L CNN
F 1 "ESD5Z5.0T1G" V 2720 1279 50  0000 L CNN
F 2 "Diode_SMD:D_SOD-523" H 2675 1000 50  0001 C CNN
F 3 "https://www.vishay.com/docs/88301/15ke.pdf" H 2625 1200 50  0001 C CNN
	1    2675 1200
	0    1    1    0   
$EndComp
Wire Wire Line
	1375 1675 1800 1675
Wire Wire Line
	775  1375 1350 1375
$Comp
L Diode:1.5KExxA D2
U 1 1 6082E0F9
P 1800 1825
F 0 "D2" V 1754 1904 50  0000 L CNN
F 1 "ESD5Z5.0T1G" V 1845 1904 50  0000 L CNN
F 2 "Diode_SMD:D_SOD-523" H 1800 1625 50  0001 C CNN
F 3 "https://www.vishay.com/docs/88301/15ke.pdf" H 1750 1825 50  0001 C CNN
	1    1800 1825
	0    1    1    0   
$EndComp
Connection ~ 1800 1675
Wire Wire Line
	1800 1675 2125 1675
$Comp
L Diode:1.5KExxA D1
U 1 1 6082E1D7
P 1350 1525
F 0 "D1" V 1304 1604 50  0000 L CNN
F 1 "ESD5Z5.0T1G" V 1395 1604 50  0000 L CNN
F 2 "Diode_SMD:D_SOD-523" H 1350 1325 50  0001 C CNN
F 3 "https://www.vishay.com/docs/88301/15ke.pdf" H 1300 1525 50  0001 C CNN
	1    1350 1525
	0    1    1    0   
$EndComp
Connection ~ 1350 1375
Wire Wire Line
	1350 1375 1750 1375
Wire Wire Line
	10550 4125 10650 4125
Wire Wire Line
	9975 4125 10175 4125
Wire Wire Line
	7800 4425 8100 4425
$Comp
L Diode:1.5KExxA D22
U 1 1 6082FD35
P 7800 3800
F 0 "D22" V 7754 3879 50  0000 L CNN
F 1 "ESD5Z5.0T1G" V 7845 3879 50  0000 L CNN
F 2 "Diode_SMD:D_SOD-523" H 7800 3600 50  0001 C CNN
F 3 "https://www.vishay.com/docs/88301/15ke.pdf" H 7750 3800 50  0001 C CNN
	1    7800 3800
	0    1    1    0   
$EndComp
$Comp
L Diode:1.5KExxA D21
U 1 1 6082FEC7
P 7350 3800
F 0 "D21" V 7304 3879 50  0000 L CNN
F 1 "ESD5Z5.0T1G" V 7395 3879 50  0000 L CNN
F 2 "Diode_SMD:D_SOD-523" H 7350 3600 50  0001 C CNN
F 3 "https://www.vishay.com/docs/88301/15ke.pdf" H 7300 3800 50  0001 C CNN
	1    7350 3800
	0    1    1    0   
$EndComp
$Comp
L Diode:1.5KExxA D18
U 1 1 6082FF7D
P 6900 3800
F 0 "D18" V 6854 3879 50  0000 L CNN
F 1 "ESD5Z5.0T1G" V 6945 3879 50  0000 L CNN
F 2 "Diode_SMD:D_SOD-523" H 6900 3600 50  0001 C CNN
F 3 "https://www.vishay.com/docs/88301/15ke.pdf" H 6850 3800 50  0001 C CNN
	1    6900 3800
	0    1    1    0   
$EndComp
$Comp
L Diode:1.5KExxA D29
U 1 1 60830043
P 10175 4275
F 0 "D29" V 10129 4354 50  0000 L CNN
F 1 "ESD5Z5.0T1G" V 10220 4354 50  0000 L CNN
F 2 "Diode_SMD:D_SOD-523" H 10175 4075 50  0001 C CNN
F 3 "https://www.vishay.com/docs/88301/15ke.pdf" H 10125 4275 50  0001 C CNN
	1    10175 4275
	0    1    1    0   
$EndComp
Connection ~ 10175 4125
Wire Wire Line
	10175 4125 10225 4125
$Comp
L Diode:1.5KExxA D32
U 1 1 60830301
P 10650 4275
F 0 "D32" V 10604 4354 50  0000 L CNN
F 1 "ESD5Z5.0T1G" V 10695 4354 50  0000 L CNN
F 2 "Diode_SMD:D_SOD-523" H 10650 4075 50  0001 C CNN
F 3 "https://www.vishay.com/docs/88301/15ke.pdf" H 10600 4275 50  0001 C CNN
	1    10650 4275
	0    1    1    0   
$EndComp
Connection ~ 10650 4125
Wire Wire Line
	10650 4125 10775 4125
Text GLabel 7775 2200 0    50   BiDi ~ 0
GPIO_PH3
Wire Wire Line
	9475 2925 9950 2925
Wire Notes Line
	1250 2075 1250 3850
$Comp
L Device:Battery_Cell BT1
U 1 1 60866A31
P 650 2925
F 0 "BT1" H 768 3021 50  0000 L CNN
F 1 "Battery_Cell" H 768 2930 50  0000 L CNN
F 2 "" V 650 2985 50  0001 C CNN
F 3 "~" V 650 2985 50  0001 C CNN
	1    650  2925
	1    0    0    -1  
$EndComp
$Comp
L power:+3.3V #PWR016
U 1 1 60866CA2
P 650 2725
F 0 "#PWR016" H 650 2575 50  0001 C CNN
F 1 "+3.3V" H 775 2775 50  0000 C CNN
F 2 "" H 650 2725 50  0001 C CNN
F 3 "" H 650 2725 50  0001 C CNN
	1    650  2725
	1    0    0    -1  
$EndComp
$Comp
L power:GND #PWR017
U 1 1 60867127
P 650 3025
F 0 "#PWR017" H 650 2775 50  0001 C CNN
F 1 "GND" H 655 2852 50  0000 C CNN
F 2 "" H 650 3025 50  0001 C CNN
F 3 "" H 650 3025 50  0001 C CNN
	1    650  3025
	1    0    0    -1  
$EndComp
$Comp
L Diode:1.5KExxA D33
U 1 1 5FB40EF9
P 4125 1600
F 0 "D33" V 4079 1679 50  0000 L CNN
F 1 "ESD5Z5.0T1G" V 4170 1679 50  0000 L CNN
F 2 "Diode_SMD:D_SOD-523" H 4125 1400 50  0001 C CNN
F 3 "https://www.vishay.com/docs/88301/15ke.pdf" H 4075 1600 50  0001 C CNN
	1    4125 1600
	0    1    1    0   
$EndComp
Connection ~ 4125 1450
Wire Wire Line
	4125 1450 4325 1450
Wire Notes Line
	8950 5000 8950 6525
Text Notes 7625 5125 0    50   ~ 0
con naar lasercontroller\n
$Comp
L power:GND #PWR019
U 1 1 5FB959A7
P 7375 6250
F 0 "#PWR019" H 7375 6000 50  0001 C CNN
F 1 "GND" H 7380 6077 50  0000 C CNN
F 2 "" H 7375 6250 50  0001 C CNN
F 3 "" H 7375 6250 50  0001 C CNN
	1    7375 6250
	1    0    0    -1  
$EndComp
$Comp
L Diode:1.5KExxA D35
U 1 1 5FB959AD
P 7375 6100
F 0 "D35" V 7329 6179 50  0000 L CNN
F 1 "ESD5Z5.0T1G" V 7420 6179 50  0000 L CNN
F 2 "Diode_SMD:D_SOD-523" H 7375 5900 50  0001 C CNN
F 3 "https://www.vishay.com/docs/88301/15ke.pdf" H 7325 6100 50  0001 C CNN
	1    7375 6100
	0    1    1    0   
$EndComp
$Comp
L power:GND #PWR020
U 1 1 5FBAFE80
P 7700 6300
F 0 "#PWR020" H 7700 6050 50  0001 C CNN
F 1 "GND" H 7705 6127 50  0000 C CNN
F 2 "" H 7700 6300 50  0001 C CNN
F 3 "" H 7700 6300 50  0001 C CNN
	1    7700 6300
	1    0    0    -1  
$EndComp
$Comp
L Diode:1.5KExxA D36
U 1 1 5FBAFE86
P 7700 6150
F 0 "D36" V 7654 6229 50  0000 L CNN
F 1 "ESD5Z5.0T1G" V 7745 6229 50  0000 L CNN
F 2 "Diode_SMD:D_SOD-523" H 7700 5950 50  0001 C CNN
F 3 "https://www.vishay.com/docs/88301/15ke.pdf" H 7650 6150 50  0001 C CNN
	1    7700 6150
	0    1    1    0   
$EndComp
$Comp
L power:GND #PWR018
U 1 1 5FBCA34C
P 7100 6225
F 0 "#PWR018" H 7100 5975 50  0001 C CNN
F 1 "GND" H 7105 6052 50  0000 C CNN
F 2 "" H 7100 6225 50  0001 C CNN
F 3 "" H 7100 6225 50  0001 C CNN
	1    7100 6225
	1    0    0    -1  
$EndComp
$Comp
L Diode:1.5KExxA D34
U 1 1 5FBCA352
P 7100 6075
F 0 "D34" V 7054 6154 50  0000 L CNN
F 1 "ESD5Z5.0T1G" V 7145 6154 50  0000 L CNN
F 2 "Diode_SMD:D_SOD-523" H 7100 5875 50  0001 C CNN
F 3 "https://www.vishay.com/docs/88301/15ke.pdf" H 7050 6075 50  0001 C CNN
	1    7100 6075
	0    1    1    0   
$EndComp
$Comp
L power:GND #PWR022
U 1 1 5FBE497F
P 7975 6050
F 0 "#PWR022" H 7975 5800 50  0001 C CNN
F 1 "GND" H 7980 5877 50  0000 C CNN
F 2 "" H 7975 6050 50  0001 C CNN
F 3 "" H 7975 6050 50  0001 C CNN
	1    7975 6050
	1    0    0    -1  
$EndComp
$Comp
L power:+3.3V #PWR021
U 1 1 5FBE4CD3
P 8625 5275
F 0 "#PWR021" H 8625 5125 50  0001 C CNN
F 1 "+3.3V" H 8640 5448 50  0000 C CNN
F 2 "" H 8625 5275 50  0001 C CNN
F 3 "" H 8625 5275 50  0001 C CNN
	1    8625 5275
	1    0    0    -1  
$EndComp
Text GLabel 7375 5800 1    50   BiDi ~ 0
DAC1_OUT2
Wire Wire Line
	8100 5950 7975 5950
Wire Wire Line
	7975 5950 7975 6050
Wire Wire Line
	7975 5950 7700 5950
Wire Wire Line
	7700 5950 7700 6000
Connection ~ 7975 5950
Wire Wire Line
	8100 5850 7375 5850
Wire Wire Line
	7375 5850 7375 5800
Wire Wire Line
	7375 5850 7375 5950
Connection ~ 7375 5850
Wire Wire Line
	7100 5925 7100 5275
Wire Wire Line
	7500 5275 7500 5750
$Comp
L Connector:Conn_01x04_Male J15
U 1 1 5FB5A86D
P 8300 5850
F 0 "J15" H 8273 5730 50  0000 R CNN
F 1 "Conn_01x04_Male" H 8273 5821 50  0000 R CNN
F 2 "Connector_JST:JST_EH_B04B-EH-A_1x04_P2.50mm_Vertical" H 8300 5850 50  0001 C CNN
F 3 "~" H 8300 5850 50  0001 C CNN
	1    8300 5850
	-1   0    0    1   
$EndComp
Wire Wire Line
	7500 5750 8100 5750
$Comp
L power:GND #PWR0144
U 1 1 5FB5ACC4
P 8575 5575
F 0 "#PWR0144" H 8575 5325 50  0001 C CNN
F 1 "GND" H 8580 5402 50  0000 C CNN
F 2 "" H 8575 5575 50  0001 C CNN
F 3 "" H 8575 5575 50  0001 C CNN
	1    8575 5575
	1    0    0    -1  
$EndComp
$Comp
L Diode:1.5KExxA D37
U 1 1 5FB5ACCA
P 8575 5425
F 0 "D37" V 8529 5504 50  0000 L CNN
F 1 "ESD5Z5.0T1G" V 8620 5504 50  0000 L CNN
F 2 "Diode_SMD:D_SOD-523" H 8575 5225 50  0001 C CNN
F 3 "https://www.vishay.com/docs/88301/15ke.pdf" H 8525 5425 50  0001 C CNN
	1    8575 5425
	0    1    1    0   
$EndComp
Wire Wire Line
	8625 5275 8575 5275
Wire Wire Line
	8575 5275 8100 5275
Wire Wire Line
	8100 5275 8100 5650
Connection ~ 8575 5275
Text GLabel 7225 5275 3    50   BiDi ~ 0
ADC_IN
Text GLabel 6550 1400 0    50   BiDi ~ 0
ADC_IN
Wire Wire Line
	6600 1400 6550 1400
Wire Wire Line
	7100 5275 7500 5275
Connection ~ 6600 1400
Wire Wire Line
	5750 2350 5750 2575
$EndSCHEMATC
